<?xml version="1.0" encoding="utf-8"?>
<!DOCTYPE eagle SYSTEM "eagle.dtd">
<eagle version="7.3.0">
<drawing>
<settings>
<setting alwaysvectorfont="no"/>
<setting verticaltext="up"/>
</settings>
<grid distance="0.1" unitdist="inch" unit="inch" style="lines" multiple="1" display="no" altdistance="0.01" altunitdist="inch" altunit="inch"/>
<layers>
<layer number="1" name="Top" color="4" fill="1" visible="no" active="no"/>
<layer number="2" name="Route2" color="1" fill="3" visible="no" active="no"/>
<layer number="3" name="Route3" color="4" fill="3" visible="no" active="no"/>
<layer number="4" name="Route4" color="1" fill="4" visible="no" active="no"/>
<layer number="5" name="Route5" color="4" fill="4" visible="no" active="no"/>
<layer number="6" name="Route6" color="1" fill="8" visible="no" active="no"/>
<layer number="7" name="Route7" color="4" fill="8" visible="no" active="no"/>
<layer number="8" name="Route8" color="1" fill="2" visible="no" active="no"/>
<layer number="9" name="Route9" color="4" fill="2" visible="no" active="no"/>
<layer number="10" name="Route10" color="1" fill="7" visible="no" active="no"/>
<layer number="11" name="Route11" color="4" fill="7" visible="no" active="no"/>
<layer number="12" name="Route12" color="1" fill="5" visible="no" active="no"/>
<layer number="13" name="Route13" color="4" fill="5" visible="no" active="no"/>
<layer number="14" name="Route14" color="1" fill="6" visible="no" active="no"/>
<layer number="15" name="Route15" color="4" fill="6" visible="no" active="no"/>
<layer number="16" name="Bottom" color="1" fill="1" visible="no" active="no"/>
<layer number="17" name="Pads" color="2" fill="1" visible="no" active="no"/>
<layer number="18" name="Vias" color="2" fill="1" visible="no" active="no"/>
<layer number="19" name="Unrouted" color="6" fill="1" visible="no" active="no"/>
<layer number="20" name="Dimension" color="15" fill="1" visible="no" active="no"/>
<layer number="21" name="tPlace" color="16" fill="1" visible="no" active="no"/>
<layer number="22" name="bPlace" color="7" fill="1" visible="no" active="no"/>
<layer number="23" name="tOrigins" color="15" fill="1" visible="no" active="no"/>
<layer number="24" name="bOrigins" color="15" fill="1" visible="no" active="no"/>
<layer number="25" name="tNames" color="7" fill="1" visible="no" active="no"/>
<layer number="26" name="bNames" color="7" fill="1" visible="no" active="no"/>
<layer number="27" name="tValues" color="7" fill="1" visible="no" active="no"/>
<layer number="28" name="bValues" color="7" fill="1" visible="no" active="no"/>
<layer number="29" name="tStop" color="7" fill="3" visible="no" active="no"/>
<layer number="30" name="bStop" color="7" fill="6" visible="no" active="no"/>
<layer number="31" name="tCream" color="7" fill="4" visible="no" active="no"/>
<layer number="32" name="bCream" color="7" fill="5" visible="no" active="no"/>
<layer number="33" name="tFinish" color="6" fill="3" visible="no" active="no"/>
<layer number="34" name="bFinish" color="6" fill="6" visible="no" active="no"/>
<layer number="35" name="tGlue" color="7" fill="4" visible="no" active="no"/>
<layer number="36" name="bGlue" color="7" fill="5" visible="no" active="no"/>
<layer number="37" name="tTest" color="7" fill="1" visible="no" active="no"/>
<layer number="38" name="bTest" color="7" fill="1" visible="no" active="no"/>
<layer number="39" name="tKeepout" color="4" fill="11" visible="no" active="no"/>
<layer number="40" name="bKeepout" color="1" fill="11" visible="no" active="no"/>
<layer number="41" name="tRestrict" color="4" fill="10" visible="no" active="no"/>
<layer number="42" name="bRestrict" color="1" fill="10" visible="no" active="no"/>
<layer number="43" name="vRestrict" color="2" fill="10" visible="no" active="no"/>
<layer number="44" name="Drills" color="7" fill="1" visible="no" active="no"/>
<layer number="45" name="Holes" color="7" fill="1" visible="no" active="no"/>
<layer number="46" name="Milling" color="3" fill="1" visible="no" active="no"/>
<layer number="47" name="Measures" color="7" fill="1" visible="no" active="no"/>
<layer number="48" name="Document" color="7" fill="1" visible="no" active="no"/>
<layer number="49" name="Reference" color="7" fill="1" visible="no" active="no"/>
<layer number="50" name="dxf" color="7" fill="1" visible="no" active="no"/>
<layer number="51" name="tDocu" color="14" fill="1" visible="no" active="no"/>
<layer number="52" name="bDocu" color="7" fill="1" visible="no" active="no"/>
<layer number="53" name="tGND_GNDA" color="7" fill="9" visible="no" active="no"/>
<layer number="54" name="bGND_GNDA" color="1" fill="9" visible="no" active="no"/>
<layer number="56" name="wert" color="7" fill="1" visible="no" active="no"/>
<layer number="57" name="tCAD" color="7" fill="1" visible="no" active="no"/>
<layer number="59" name="tCarbon" color="7" fill="1" visible="no" active="no"/>
<layer number="60" name="bCarbon" color="7" fill="1" visible="no" active="no"/>
<layer number="90" name="Modules" color="5" fill="1" visible="yes" active="yes"/>
<layer number="91" name="Nets" color="2" fill="1" visible="yes" active="yes"/>
<layer number="92" name="Busses" color="1" fill="1" visible="yes" active="yes"/>
<layer number="93" name="Pins" color="2" fill="1" visible="no" active="yes"/>
<layer number="94" name="Symbols" color="4" fill="1" visible="yes" active="yes"/>
<layer number="95" name="Names" color="7" fill="1" visible="yes" active="yes"/>
<layer number="96" name="Values" color="7" fill="1" visible="yes" active="yes"/>
<layer number="97" name="Info" color="7" fill="1" visible="yes" active="yes"/>
<layer number="98" name="Guide" color="6" fill="1" visible="yes" active="yes"/>
<layer number="99" name="SpiceOrder" color="7" fill="1" visible="yes" active="yes"/>
<layer number="100" name="Muster" color="7" fill="1" visible="no" active="no"/>
<layer number="101" name="Patch_Top" color="12" fill="4" visible="no" active="yes"/>
<layer number="102" name="Vscore" color="7" fill="1" visible="no" active="yes"/>
<layer number="103" name="tMap" color="7" fill="1" visible="no" active="yes"/>
<layer number="104" name="Name" color="16" fill="1" visible="no" active="yes"/>
<layer number="105" name="tPlate" color="7" fill="1" visible="no" active="yes"/>
<layer number="106" name="bPlate" color="7" fill="1" visible="no" active="yes"/>
<layer number="107" name="Crop" color="7" fill="1" visible="no" active="yes"/>
<layer number="108" name="tplace-old" color="10" fill="1" visible="no" active="yes"/>
<layer number="109" name="ref-old" color="11" fill="1" visible="no" active="yes"/>
<layer number="110" name="fp0" color="7" fill="1" visible="no" active="yes"/>
<layer number="111" name="LPC17xx" color="7" fill="1" visible="no" active="yes"/>
<layer number="112" name="tSilk" color="7" fill="1" visible="no" active="yes"/>
<layer number="113" name="IDFDebug" color="4" fill="1" visible="no" active="yes"/>
<layer number="116" name="Patch_BOT" color="9" fill="4" visible="no" active="yes"/>
<layer number="118" name="Rect_Pads" color="7" fill="1" visible="yes" active="yes"/>
<layer number="121" name="_tsilk" color="7" fill="1" visible="no" active="yes"/>
<layer number="122" name="_bsilk" color="7" fill="1" visible="no" active="yes"/>
<layer number="123" name="tTestmark" color="7" fill="1" visible="no" active="yes"/>
<layer number="124" name="bTestmark" color="7" fill="1" visible="no" active="yes"/>
<layer number="125" name="_tNames" color="7" fill="1" visible="no" active="yes"/>
<layer number="126" name="_bNames" color="7" fill="1" visible="no" active="yes"/>
<layer number="127" name="_tValues" color="7" fill="1" visible="no" active="yes"/>
<layer number="128" name="_bValues" color="7" fill="1" visible="no" active="yes"/>
<layer number="129" name="Mask" color="7" fill="1" visible="yes" active="yes"/>
<layer number="131" name="tAdjust" color="7" fill="1" visible="no" active="yes"/>
<layer number="132" name="bAdjust" color="7" fill="1" visible="no" active="yes"/>
<layer number="144" name="Drill_legend" color="7" fill="1" visible="no" active="yes"/>
<layer number="150" name="Notes" color="7" fill="1" visible="no" active="yes"/>
<layer number="151" name="HeatSink" color="7" fill="1" visible="no" active="yes"/>
<layer number="152" name="_bDocu" color="7" fill="1" visible="yes" active="yes"/>
<layer number="153" name="FabDoc1" color="7" fill="1" visible="no" active="yes"/>
<layer number="154" name="FabDoc2" color="7" fill="1" visible="no" active="yes"/>
<layer number="155" name="FabDoc3" color="7" fill="1" visible="no" active="yes"/>
<layer number="199" name="Contour" color="7" fill="1" visible="no" active="yes"/>
<layer number="200" name="200bmp" color="1" fill="10" visible="no" active="yes"/>
<layer number="201" name="201bmp" color="2" fill="10" visible="no" active="yes"/>
<layer number="202" name="202bmp" color="3" fill="10" visible="no" active="yes"/>
<layer number="203" name="203bmp" color="4" fill="10" visible="no" active="yes"/>
<layer number="204" name="204bmp" color="5" fill="10" visible="no" active="yes"/>
<layer number="205" name="205bmp" color="6" fill="10" visible="no" active="yes"/>
<layer number="206" name="206bmp" color="7" fill="10" visible="no" active="yes"/>
<layer number="207" name="207bmp" color="8" fill="10" visible="no" active="yes"/>
<layer number="208" name="208bmp" color="9" fill="10" visible="no" active="yes"/>
<layer number="209" name="209bmp" color="7" fill="1" visible="no" active="yes"/>
<layer number="210" name="210bmp" color="7" fill="1" visible="no" active="yes"/>
<layer number="211" name="211bmp" color="7" fill="1" visible="no" active="yes"/>
<layer number="212" name="212bmp" color="7" fill="1" visible="no" active="yes"/>
<layer number="213" name="213bmp" color="7" fill="1" visible="no" active="yes"/>
<layer number="214" name="214bmp" color="7" fill="1" visible="no" active="yes"/>
<layer number="215" name="215bmp" color="7" fill="1" visible="no" active="yes"/>
<layer number="216" name="216bmp" color="7" fill="1" visible="no" active="yes"/>
<layer number="217" name="217bmp" color="18" fill="1" visible="no" active="no"/>
<layer number="218" name="218bmp" color="19" fill="1" visible="no" active="no"/>
<layer number="219" name="219bmp" color="20" fill="1" visible="no" active="no"/>
<layer number="220" name="220bmp" color="21" fill="1" visible="no" active="no"/>
<layer number="221" name="221bmp" color="22" fill="1" visible="no" active="no"/>
<layer number="222" name="222bmp" color="23" fill="1" visible="no" active="no"/>
<layer number="223" name="223bmp" color="24" fill="1" visible="no" active="no"/>
<layer number="224" name="224bmp" color="25" fill="1" visible="no" active="no"/>
<layer number="225" name="225bmp" color="7" fill="1" visible="yes" active="yes"/>
<layer number="226" name="226bmp" color="7" fill="1" visible="yes" active="yes"/>
<layer number="227" name="227bmp" color="7" fill="1" visible="yes" active="yes"/>
<layer number="228" name="228bmp" color="7" fill="1" visible="yes" active="yes"/>
<layer number="229" name="229bmp" color="7" fill="1" visible="yes" active="yes"/>
<layer number="230" name="230bmp" color="7" fill="1" visible="yes" active="yes"/>
<layer number="231" name="231bmp" color="7" fill="1" visible="yes" active="yes"/>
<layer number="248" name="Housing" color="7" fill="1" visible="no" active="yes"/>
<layer number="249" name="Edge" color="7" fill="1" visible="no" active="yes"/>
<layer number="250" name="Descript" color="3" fill="1" visible="no" active="no"/>
<layer number="251" name="SMDround" color="12" fill="11" visible="no" active="no"/>
<layer number="254" name="cooling" color="7" fill="1" visible="no" active="yes"/>
<layer number="255" name="routoute" color="7" fill="1" visible="yes" active="yes"/>
</layers>
<schematic xreflabel="%F%N/%S.%C%R" xrefpart="/%S.%C%R">
<libraries>
<library name="SparkFun-Electromechanical">
<description>&lt;h3&gt;SparkFun Electronics' preferred foot prints&lt;/h3&gt;
In this library you'll find anything that moves- switches, relays, buttons, potentiometers. Also, anything that goes on a board but isn't electrical in nature- screws, standoffs, etc.&lt;br&gt;&lt;br&gt;
We've spent an enormous amount of time creating and checking these footprints and parts, but it is the end user's responsibility to ensure correctness and suitablity for a given componet or application. If you enjoy using this library, please buy one of our products at www.sparkfun.com.
&lt;br&gt;&lt;br&gt;
&lt;b&gt;Licensing:&lt;/b&gt; Creative Commons ShareAlike 4.0 International - https://creativecommons.org/licenses/by-sa/4.0/ 
&lt;br&gt;&lt;br&gt;
You are welcome to use this library for commercial purposes. For attribution, we ask that when you begin to sell your device using our footprint, you email us with a link to the product being sold. We want bragging rights that we helped (in a very small part) to create your 8th world wonder. We would like the opportunity to feature your device on our homepage.</description>
<packages>
<package name="TACTILE-PTH">
<description>&lt;b&gt;OMRON SWITCH&lt;/b&gt;</description>
<wire x1="3.048" y1="1.016" x2="3.048" y2="2.54" width="0.2032" layer="51"/>
<wire x1="3.048" y1="2.54" x2="2.54" y2="3.048" width="0.2032" layer="51"/>
<wire x1="2.54" y1="-3.048" x2="3.048" y2="-2.54" width="0.2032" layer="51"/>
<wire x1="3.048" y1="-2.54" x2="3.048" y2="-1.016" width="0.2032" layer="51"/>
<wire x1="-2.54" y1="3.048" x2="-3.048" y2="2.54" width="0.2032" layer="51"/>
<wire x1="-3.048" y1="2.54" x2="-3.048" y2="1.016" width="0.2032" layer="51"/>
<wire x1="-2.54" y1="-3.048" x2="-3.048" y2="-2.54" width="0.2032" layer="51"/>
<wire x1="-3.048" y1="-2.54" x2="-3.048" y2="-1.016" width="0.2032" layer="51"/>
<wire x1="2.54" y1="-3.048" x2="2.159" y2="-3.048" width="0.2032" layer="51"/>
<wire x1="-2.54" y1="-3.048" x2="-2.159" y2="-3.048" width="0.2032" layer="51"/>
<wire x1="-2.54" y1="3.048" x2="-2.159" y2="3.048" width="0.2032" layer="51"/>
<wire x1="2.54" y1="3.048" x2="2.159" y2="3.048" width="0.2032" layer="51"/>
<wire x1="2.159" y1="3.048" x2="-2.159" y2="3.048" width="0.2032" layer="21"/>
<wire x1="-2.159" y1="-3.048" x2="2.159" y2="-3.048" width="0.2032" layer="21"/>
<wire x1="3.048" y1="0.998" x2="3.048" y2="-1.016" width="0.2032" layer="21"/>
<wire x1="-3.048" y1="1.028" x2="-3.048" y2="-1.016" width="0.2032" layer="21"/>
<wire x1="-2.54" y1="1.27" x2="-2.54" y2="0.508" width="0.2032" layer="51"/>
<wire x1="-2.54" y1="-0.508" x2="-2.54" y2="-1.27" width="0.2032" layer="51"/>
<wire x1="-2.54" y1="0.508" x2="-2.159" y2="-0.381" width="0.2032" layer="51"/>
<circle x="0" y="0" radius="1.778" width="0.2032" layer="21"/>
<pad name="1" x="-3.2512" y="2.2606" drill="1.016" diameter="1.8796"/>
<pad name="2" x="3.2512" y="2.2606" drill="1.016" diameter="1.8796"/>
<pad name="3" x="-3.2512" y="-2.2606" drill="1.016" diameter="1.8796"/>
<pad name="4" x="3.2512" y="-2.2606" drill="1.016" diameter="1.8796"/>
<text x="0" y="3.81" size="1.27" layer="25" font="vector" ratio="10" align="bottom-center">&gt;NAME</text>
</package>
<package name="TACTILE_SWITCH_SMD-2">
<wire x1="1.905" y1="1.27" x2="1.905" y2="0.445" width="0.127" layer="51"/>
<wire x1="1.905" y1="0.445" x2="2.16" y2="-0.01" width="0.127" layer="51"/>
<wire x1="1.905" y1="-0.23" x2="1.905" y2="-1.115" width="0.127" layer="51"/>
<wire x1="-2.25" y1="2.25" x2="2.25" y2="2.25" width="0.127" layer="51"/>
<wire x1="2.25" y1="2.25" x2="2.25" y2="-2.25" width="0.127" layer="51"/>
<wire x1="2.25" y1="-2.25" x2="-2.25" y2="-2.25" width="0.127" layer="51"/>
<wire x1="-2.25" y1="-2.25" x2="-2.25" y2="2.25" width="0.127" layer="51"/>
<wire x1="-2.2" y1="0.8" x2="-2.2" y2="-0.8" width="0.2032" layer="21"/>
<wire x1="1.3" y1="2.2" x2="-1.3" y2="2.2" width="0.2032" layer="21"/>
<wire x1="2.2" y1="-0.8" x2="2.2" y2="0.8" width="0.2032" layer="21"/>
<wire x1="-1.3" y1="-2.2" x2="1.3" y2="-2.2" width="0.2032" layer="21"/>
<wire x1="2.2" y1="0.8" x2="1.8" y2="0.8" width="0.2032" layer="21"/>
<wire x1="2.2" y1="-0.8" x2="1.8" y2="-0.8" width="0.2032" layer="21"/>
<wire x1="-1.8" y1="0.8" x2="-2.2" y2="0.8" width="0.2032" layer="21"/>
<wire x1="-1.8" y1="-0.8" x2="-2.2" y2="-0.8" width="0.2032" layer="21"/>
<circle x="0" y="0" radius="1.27" width="0.2032" layer="21"/>
<smd name="1" x="2.225" y="1.75" dx="1.1" dy="0.7" layer="1" rot="R90"/>
<smd name="2" x="2.225" y="-1.75" dx="1.1" dy="0.7" layer="1" rot="R90"/>
<smd name="3" x="-2.225" y="-1.75" dx="1.1" dy="0.7" layer="1" rot="R90"/>
<smd name="4" x="-2.225" y="1.75" dx="1.1" dy="0.7" layer="1" rot="R90"/>
<text x="-0.889" y="1.778" size="0.4064" layer="25">&gt;NAME</text>
<text x="-0.889" y="-2.032" size="0.4064" layer="27">&gt;Value</text>
</package>
<package name="TACTILE-PTH-12MM">
<wire x1="5" y1="-1.3" x2="5" y2="-0.7" width="0.2032" layer="51"/>
<wire x1="5" y1="-0.7" x2="4.5" y2="-0.2" width="0.2032" layer="51"/>
<wire x1="5" y1="0.2" x2="5" y2="1" width="0.2032" layer="51"/>
<wire x1="-6" y1="4" x2="-6" y2="5" width="0.2032" layer="21"/>
<wire x1="-5" y1="6" x2="5" y2="6" width="0.2032" layer="21"/>
<wire x1="6" y1="5" x2="6" y2="4" width="0.2032" layer="21"/>
<wire x1="6" y1="1" x2="6" y2="-1" width="0.2032" layer="21"/>
<wire x1="6" y1="-4" x2="6" y2="-5" width="0.2032" layer="21"/>
<wire x1="5" y1="-6" x2="-5" y2="-6" width="0.2032" layer="21"/>
<wire x1="-6" y1="-5" x2="-6" y2="-4" width="0.2032" layer="21"/>
<wire x1="-6" y1="-1" x2="-6" y2="1" width="0.2032" layer="21"/>
<wire x1="-6" y1="5" x2="-5" y2="6" width="0.2032" layer="21" curve="-90"/>
<wire x1="5" y1="6" x2="6" y2="5" width="0.2032" layer="21" curve="-90"/>
<wire x1="6" y1="-5" x2="5" y2="-6" width="0.2032" layer="21" curve="-90"/>
<wire x1="-5" y1="-6" x2="-6" y2="-5" width="0.2032" layer="21" curve="-90"/>
<circle x="0" y="0" radius="3.5" width="0.2032" layer="21"/>
<circle x="-4.5" y="4.5" radius="0.3" width="0.7" layer="21"/>
<circle x="4.5" y="4.5" radius="0.3" width="0.7" layer="21"/>
<circle x="4.5" y="-4.5" radius="0.3" width="0.7" layer="21"/>
<circle x="-4.5" y="-4.5" radius="0.3" width="0.7" layer="21"/>
<pad name="4" x="-6.25" y="2.5" drill="1.2" diameter="2.159"/>
<pad name="2" x="-6.25" y="-2.5" drill="1.2" diameter="2.159"/>
<pad name="1" x="6.25" y="-2.5" drill="1.2" diameter="2.159"/>
<pad name="3" x="6.25" y="2.5" drill="1.2" diameter="2.159"/>
</package>
<package name="REED_SWITCH_PTH">
<wire x1="-6.985" y1="-0.635" x2="6.985" y2="-0.635" width="0.127" layer="21"/>
<wire x1="-6.985" y1="-0.635" x2="-6.985" y2="0" width="0.127" layer="21"/>
<wire x1="-6.985" y1="0" x2="-6.985" y2="0.635" width="0.127" layer="21"/>
<wire x1="-6.985" y1="0.635" x2="6.985" y2="0.635" width="0.127" layer="21"/>
<wire x1="6.985" y1="0.635" x2="6.985" y2="0" width="0.127" layer="21"/>
<wire x1="6.985" y1="0" x2="6.985" y2="-0.635" width="0.127" layer="21"/>
<wire x1="-6.985" y1="0" x2="-7.62" y2="0" width="0.127" layer="21"/>
<wire x1="6.985" y1="0" x2="7.62" y2="0" width="0.127" layer="21"/>
<pad name="P$1" x="-8.89" y="0" drill="1.016" diameter="1.8796"/>
<pad name="P$2" x="8.89" y="0" drill="1.016" diameter="1.8796"/>
</package>
<package name="TACTILE_SWITCH_TALL">
<wire x1="-3" y1="-3" x2="3" y2="-3" width="0.254" layer="21"/>
<wire x1="3" y1="-3" x2="3" y2="3" width="0.254" layer="21"/>
<wire x1="3" y1="3" x2="-3" y2="3" width="0.254" layer="21"/>
<wire x1="-3" y1="3" x2="-3" y2="-3" width="0.254" layer="21"/>
<circle x="0" y="0" radius="1.75" width="0.254" layer="21"/>
<smd name="A1" x="-3.975" y="-2.25" dx="1.3" dy="1.55" layer="1" rot="R90"/>
<smd name="A2" x="3.975" y="-2.25" dx="1.3" dy="1.55" layer="1" rot="R90"/>
<smd name="B1" x="-3.975" y="2.25" dx="1.3" dy="1.55" layer="1" rot="R90"/>
<smd name="B2" x="3.975" y="2.25" dx="1.3" dy="1.55" layer="1" rot="R90"/>
</package>
<package name="REED_SWITCH_PLASTIC">
<wire x1="-7.5" y1="-1.65" x2="7.5" y2="-1.65" width="0.127" layer="21"/>
<wire x1="-7.5" y1="-1.65" x2="-7.5" y2="0" width="0.127" layer="21"/>
<wire x1="-7.5" y1="0" x2="-7.5" y2="1.65" width="0.127" layer="21"/>
<wire x1="-7.5" y1="1.65" x2="7.5" y2="1.65" width="0.127" layer="21"/>
<wire x1="7.5" y1="1.65" x2="7.5" y2="0" width="0.127" layer="21"/>
<wire x1="7.5" y1="0" x2="7.5" y2="-1.65" width="0.127" layer="21"/>
<wire x1="-7.5" y1="0" x2="-7.72" y2="0" width="0.127" layer="21"/>
<wire x1="7.5" y1="0" x2="7.72" y2="0" width="0.127" layer="21"/>
<pad name="P$1" x="-8.89" y="0" drill="1.016" diameter="1.8796"/>
<pad name="P$2" x="8.89" y="0" drill="1.016" diameter="1.8796"/>
</package>
<package name="TACTILE-PTH-SIDEEZ">
<wire x1="1.5" y1="-3.8" x2="-1.5" y2="-3.8" width="0.2032" layer="51"/>
<wire x1="-3.65" y1="-2" x2="-3.65" y2="3.5" width="0.2032" layer="51"/>
<wire x1="-3.65" y1="3.5" x2="-3" y2="3.5" width="0.2032" layer="51"/>
<wire x1="3" y1="3.5" x2="3.65" y2="3.5" width="0.2032" layer="51"/>
<wire x1="3.65" y1="3.5" x2="3.65" y2="-2" width="0.2032" layer="51"/>
<wire x1="-3" y1="2" x2="3" y2="2" width="0.2032" layer="51"/>
<wire x1="-3" y1="2" x2="-3" y2="3.5" width="0.2032" layer="51"/>
<wire x1="3" y1="2" x2="3" y2="3.5" width="0.2032" layer="51"/>
<wire x1="-3.65" y1="-2" x2="-1.5" y2="-2" width="0.2032" layer="51"/>
<wire x1="-1.5" y1="-2" x2="1.5" y2="-2" width="0.2032" layer="51"/>
<wire x1="1.5" y1="-2" x2="3.65" y2="-2" width="0.2032" layer="51"/>
<wire x1="1.5" y1="-2" x2="1.5" y2="-3.8" width="0.2032" layer="51"/>
<wire x1="-1.5" y1="-2" x2="-1.5" y2="-3.8" width="0.2032" layer="51"/>
<wire x1="-3.65" y1="1" x2="-3.65" y2="-2" width="0.2032" layer="21"/>
<wire x1="-3.65" y1="-2" x2="3.65" y2="-2" width="0.2032" layer="21"/>
<wire x1="3.65" y1="-2" x2="3.65" y2="1" width="0.2032" layer="21"/>
<wire x1="2" y1="2" x2="-2" y2="2" width="0.2032" layer="21"/>
<pad name="ANCHOR1" x="-3.5" y="2.5" drill="1.2" diameter="2.2" stop="no"/>
<pad name="ANCHOR2" x="3.5" y="2.5" drill="1.2" diameter="2.2" stop="no"/>
<pad name="1" x="-2.5" y="0" drill="0.8" diameter="1.7" stop="no"/>
<pad name="2" x="2.5" y="0" drill="0.8" diameter="1.7" stop="no"/>
<text x="-2.54" y="3.81" size="1.27" layer="25" ratio="10">&gt;NAME</text>
<circle x="2.5" y="0" radius="0.4445" width="0" layer="29"/>
<circle x="-2.5" y="0" radius="0.4445" width="0" layer="29"/>
<circle x="-3.5" y="2.5" radius="0.635" width="0" layer="29"/>
<circle x="3.5" y="2.5" radius="0.635" width="0" layer="29"/>
<circle x="-3.5" y="2.5" radius="1.143" width="0" layer="30"/>
<circle x="2.5" y="0" radius="0.889" width="0" layer="30"/>
<circle x="-2.5" y="0" radius="0.889" width="0" layer="30"/>
<circle x="3.5" y="2.5" radius="1.143" width="0" layer="30"/>
</package>
<package name="TACTILE_SWITCH_SMD-3">
<wire x1="-2.04" y1="-0.44" x2="-2.04" y2="0.47" width="0.2032" layer="21"/>
<wire x1="-1.04" y1="1.14" x2="1.04" y2="1.14" width="0.2032" layer="21"/>
<circle x="0" y="0" radius="0.8" width="0.15" layer="21"/>
<smd name="1" x="-1.8" y="1.1" dx="0.8" dy="1" layer="1" rot="R90"/>
<smd name="2" x="1.8" y="1.1" dx="0.8" dy="1" layer="1" rot="R90"/>
<smd name="3" x="-1.8" y="-1.1" dx="0.8" dy="1" layer="1" rot="R90"/>
<smd name="4" x="1.8" y="-1.1" dx="0.8" dy="1" layer="1" rot="R90"/>
<wire x1="2.06" y1="-0.44" x2="2.06" y2="0.47" width="0.2032" layer="21"/>
<wire x1="-1.04" y1="-1.16" x2="1.04" y2="-1.16" width="0.2032" layer="21"/>
</package>
<package name="TACTILE_SWITCH_SMD">
<wire x1="-1.54" y1="-2.54" x2="-2.54" y2="-1.54" width="0.2032" layer="51"/>
<wire x1="-2.54" y1="-1.24" x2="-2.54" y2="1.27" width="0.2032" layer="21"/>
<wire x1="-2.54" y1="1.54" x2="-1.54" y2="2.54" width="0.2032" layer="51"/>
<wire x1="-1.54" y1="2.54" x2="1.54" y2="2.54" width="0.2032" layer="21"/>
<wire x1="1.54" y1="2.54" x2="2.54" y2="1.54" width="0.2032" layer="51"/>
<wire x1="2.54" y1="1.24" x2="2.54" y2="-1.24" width="0.2032" layer="21"/>
<wire x1="2.54" y1="-1.54" x2="1.54" y2="-2.54" width="0.2032" layer="51"/>
<wire x1="1.54" y1="-2.54" x2="-1.54" y2="-2.54" width="0.2032" layer="21"/>
<wire x1="1.905" y1="1.27" x2="1.905" y2="0.445" width="0.127" layer="51"/>
<wire x1="1.905" y1="0.445" x2="2.16" y2="-0.01" width="0.127" layer="51"/>
<wire x1="1.905" y1="-0.23" x2="1.905" y2="-1.115" width="0.127" layer="51"/>
<circle x="0" y="0" radius="1.27" width="0.2032" layer="21"/>
<smd name="1" x="-2.54" y="1.905" dx="0.762" dy="1.524" layer="1" rot="R90"/>
<smd name="2" x="2.54" y="1.905" dx="0.762" dy="1.524" layer="1" rot="R90"/>
<smd name="3" x="-2.54" y="-1.905" dx="0.762" dy="1.524" layer="1" rot="R90"/>
<smd name="4" x="2.54" y="-1.905" dx="0.762" dy="1.524" layer="1" rot="R90"/>
<text x="0" y="2.8575" size="0.8128" layer="25" ratio="10" align="bottom-center">&gt;NAME</text>
<text x="0" y="-2.8575" size="0.8128" layer="27" ratio="10" align="top-center">&gt;Value</text>
<rectangle x1="-3.302" y1="-2.286" x2="-1.778" y2="-1.524" layer="48"/>
<rectangle x1="-3.302" y1="1.524" x2="-1.778" y2="2.286" layer="48"/>
<rectangle x1="1.778" y1="1.524" x2="3.302" y2="2.286" layer="48"/>
<rectangle x1="1.778" y1="-2.286" x2="3.302" y2="-1.524" layer="48"/>
</package>
<package name="TACTILE-SWITCH-1101NE">
<description>Sparkfun SKU# COM-08229</description>
<wire x1="-3" y1="1.1" x2="-3" y2="-1.1" width="0.127" layer="51"/>
<wire x1="3" y1="1.1" x2="3" y2="-1.1" width="0.127" layer="51"/>
<wire x1="-2.75" y1="1.75" x2="-3" y2="1.5" width="0.127" layer="21" curve="90"/>
<wire x1="-2.75" y1="1.75" x2="2.75" y2="1.75" width="0.127" layer="21"/>
<wire x1="2.75" y1="1.75" x2="3" y2="1.5" width="0.127" layer="21" curve="-90"/>
<wire x1="3" y1="-1.5" x2="2.65" y2="-1.75" width="0.127" layer="21" curve="-90"/>
<wire x1="2.65" y1="-1.75" x2="-2.75" y2="-1.75" width="0.127" layer="21"/>
<wire x1="-3" y1="-1.5" x2="-2.75" y2="-1.75" width="0.127" layer="21" curve="90"/>
<wire x1="-3" y1="-1.5" x2="-3" y2="-1.1" width="0.127" layer="21"/>
<wire x1="-3" y1="1.1" x2="-3" y2="1.5" width="0.127" layer="21"/>
<wire x1="3" y1="1.1" x2="3" y2="1.5" width="0.127" layer="21"/>
<wire x1="3" y1="-1.5" x2="3" y2="-1.1" width="0.127" layer="21"/>
<wire x1="-1.5" y1="0.75" x2="1.5" y2="0.75" width="0.127" layer="21"/>
<wire x1="1.5" y1="-0.75" x2="-1.5" y2="-0.75" width="0.127" layer="21"/>
<wire x1="-1.5" y1="-0.75" x2="-1.5" y2="0.75" width="0.127" layer="21"/>
<wire x1="1.5" y1="-0.75" x2="1.5" y2="0.75" width="0.127" layer="21"/>
<wire x1="-2" y1="0" x2="-1" y2="0" width="0.127" layer="51"/>
<wire x1="-1" y1="0" x2="0.1" y2="0.5" width="0.127" layer="51"/>
<wire x1="0.3" y1="0" x2="2" y2="0" width="0.127" layer="51"/>
<smd name="P$1" x="-3.15" y="0" dx="2.3" dy="1.6" layer="1" rot="R180"/>
<smd name="P$2" x="3.15" y="0" dx="2.3" dy="1.6" layer="1" rot="R180"/>
<text x="-3" y="2" size="0.762" layer="25">&gt;NAME</text>
<text x="-3" y="-2.7" size="0.762" layer="27">&gt;VALUE</text>
</package>
<package name="BUZZER-12MM">
<description>&lt;b&gt;BUZZER&lt;/b&gt;</description>
<circle x="0" y="0" radius="5.9" width="0.2032" layer="21"/>
<circle x="0" y="0" radius="1.27" width="0.2032" layer="51"/>
<pad name="-" x="-3.25" y="0" drill="0.9" diameter="1.778"/>
<pad name="+" x="3.25" y="0" drill="0.9" diameter="1.778"/>
<text x="0" y="2.54" size="1.27" layer="25" font="vector" ratio="10" align="bottom-center">&gt;NAME</text>
<text x="0" y="-2.54" size="1.27" layer="27" font="vector" ratio="10" align="top-center">&gt;VALUE</text>
</package>
<package name="BUZZER-CMT1603">
<wire x1="-8" y1="8" x2="-8" y2="-8" width="0.127" layer="21"/>
<wire x1="-8" y1="-8" x2="8" y2="-8" width="0.127" layer="21"/>
<wire x1="8" y1="-8" x2="8" y2="8" width="0.127" layer="21"/>
<wire x1="8" y1="8" x2="-8" y2="8" width="0.127" layer="21"/>
<smd name="P$1" x="-9.3" y="0" dx="2.5" dy="3" layer="1"/>
<smd name="P$2" x="9.3" y="0" dx="2.5" dy="3" layer="1"/>
</package>
<package name="BUZZER-CCV">
<wire x1="2.6" y1="-6" x2="-2.6" y2="-6" width="0.127" layer="51"/>
<wire x1="2.6" y1="-6" x2="2.6" y2="-3.7" width="0.127" layer="51"/>
<wire x1="-2.6" y1="-6" x2="-2.6" y2="-3.7" width="0.127" layer="51"/>
<wire x1="-4.2" y1="1.6" x2="1.27" y2="4.318" width="0.2032" layer="21" curve="-86.141052"/>
<wire x1="3.048" y1="3.302" x2="4.191" y2="1.651" width="0.2032" layer="21" curve="-25.69541"/>
<wire x1="4.2" y1="-1.6" x2="2.6" y2="-3.7" width="0.2032" layer="21" curve="-31.605028"/>
<wire x1="-3.302" y1="-3.048" x2="-2.6" y2="-3.6" width="0.2032" layer="21" curve="12.917633"/>
<wire x1="-2.6" y1="-6" x2="2.6" y2="-6" width="0.2032" layer="21"/>
<wire x1="2.6" y1="-6" x2="2.6" y2="-3.7" width="0.2032" layer="21"/>
<wire x1="-2.6" y1="-6" x2="-2.6" y2="-3.6" width="0.2032" layer="21"/>
<circle x="0" y="0" radius="4.5" width="0.127" layer="51"/>
<smd name="-" x="-4" y="0" dx="3.2" dy="2.5" layer="1"/>
<smd name="+" x="4" y="0" dx="3.2" dy="2.5" layer="1"/>
<hole x="-3.9" y="-2.25" drill="0.8"/>
<hole x="2.25" y="3.9" drill="0.8"/>
</package>
<package name="BUZZER-CMT1102">
<wire x1="-5.5" y1="4.5" x2="5.5" y2="4.5" width="0.127" layer="51"/>
<wire x1="5.5" y1="4.5" x2="5.5" y2="-4.5" width="0.127" layer="51"/>
<wire x1="5.5" y1="-4.5" x2="-5.5" y2="-4.5" width="0.127" layer="51"/>
<wire x1="-5.5" y1="-4.5" x2="-5.5" y2="4.5" width="0.127" layer="51"/>
<wire x1="-5.5" y1="4.5" x2="-5.5" y2="2" width="0.2032" layer="21"/>
<wire x1="-5.5" y1="4.5" x2="5.5" y2="4.5" width="0.2032" layer="21"/>
<wire x1="5.5" y1="4.5" x2="5.5" y2="2" width="0.2032" layer="21"/>
<wire x1="5.5" y1="-2" x2="5.5" y2="-4.5" width="0.2032" layer="21"/>
<wire x1="5.5" y1="-4.5" x2="-5.5" y2="-4.5" width="0.2032" layer="21"/>
<wire x1="-5.5" y1="-4.5" x2="-5.5" y2="-2" width="0.2032" layer="21"/>
<smd name="1" x="-6.5" y="0" dx="3" dy="3" layer="1"/>
<smd name="2" x="6.5" y="0" dx="3" dy="3" layer="1"/>
</package>
<package name="BUZZER-12MM-NS">
<circle x="0" y="0" radius="5.9" width="0.2032" layer="51"/>
<circle x="0" y="0" radius="1.27" width="0.2032" layer="51"/>
<pad name="-" x="-3.25" y="0" drill="0.9"/>
<pad name="+" x="3.25" y="0" drill="0.9"/>
<text x="-2.54" y="2.54" size="0.6096" layer="25" ratio="10">&gt;NAME</text>
<text x="-3.175" y="-3.048" size="0.6096" layer="27" ratio="10">&gt;VALUE</text>
<text x="2.667" y="1.143" size="1.778" layer="51">+</text>
</package>
<package name="BUZZER-12MM-NS-KIT">
<description>&lt;h3&gt;BUZZER-12MM-NS-KIT&lt;/h3&gt;
Through-hole buzzer&lt;br&gt;
&lt;br&gt;
&lt;b&gt;Warning:&lt;/b&gt; This is the KIT version of this package. This package has a smaller diameter top stop mask, which doesn't cover the diameter of the pad. This means only the bottom side of the pads' copper will be exposed. You'll only be able to solder to the bottom side.</description>
<circle x="0" y="0" radius="5.9" width="0.2032" layer="51"/>
<circle x="0" y="0" radius="1.27" width="0.2032" layer="51"/>
<pad name="-" x="-3.25" y="0" drill="0.9" diameter="1.8796" stop="no"/>
<pad name="+" x="3.25" y="0" drill="0.9" diameter="1.8796" stop="no"/>
<text x="-2.54" y="2.54" size="0.6096" layer="25" ratio="10">&gt;NAME</text>
<text x="-3.175" y="-3.048" size="0.6096" layer="27" ratio="10">&gt;VALUE</text>
<text x="2.667" y="1.143" size="1.778" layer="51">+</text>
<polygon width="0.127" layer="30">
<vertex x="3.2537" y="-0.9525" curve="-90"/>
<vertex x="2.2988" y="-0.0228" curve="-90.011749"/>
<vertex x="3.2512" y="0.9526" curve="-90"/>
<vertex x="4.2012" y="-0.0254" curve="-90.024193"/>
</polygon>
<polygon width="0.127" layer="29">
<vertex x="3.2512" y="-0.4445" curve="-90.012891"/>
<vertex x="2.8067" y="-0.0203" curve="-90"/>
<vertex x="3.2512" y="0.447" curve="-90"/>
<vertex x="3.6931" y="-0.0101" curve="-90.012967"/>
</polygon>
<polygon width="0.127" layer="30">
<vertex x="-3.2487" y="-0.9525" curve="-90"/>
<vertex x="-4.2036" y="-0.0228" curve="-90.011749"/>
<vertex x="-3.2512" y="0.9526" curve="-90"/>
<vertex x="-2.3012" y="-0.0254" curve="-90.024193"/>
</polygon>
<polygon width="0.127" layer="29">
<vertex x="-3.2512" y="-0.4445" curve="-90.012891"/>
<vertex x="-3.6957" y="-0.0203" curve="-90"/>
<vertex x="-3.2512" y="0.447" curve="-90"/>
<vertex x="-2.8093" y="-0.0101" curve="-90.012967"/>
</polygon>
</package>
<package name="BUZZER-CCV-KIT">
<description>&lt;h3&gt;BUZZER-CCV-KIT&lt;/h3&gt;
SMD Buzzer&lt;br&gt;
&lt;br&gt;
&lt;b&gt;Warning:&lt;/b&gt; This is the KIT version of this package. This package has longer pads to aid in hand soldering.</description>
<wire x1="2.6" y1="-6" x2="-2.6" y2="-6" width="0.127" layer="51"/>
<wire x1="2.6" y1="-6" x2="2.6" y2="-3.7" width="0.127" layer="51"/>
<wire x1="-2.6" y1="-6" x2="-2.6" y2="-3.7" width="0.127" layer="51"/>
<wire x1="-4.2" y1="1.6" x2="1.27" y2="4.318" width="0.2032" layer="21" curve="-86.141052"/>
<wire x1="3.048" y1="3.302" x2="4.191" y2="1.651" width="0.2032" layer="21" curve="-25.69541"/>
<wire x1="4.2" y1="-1.6" x2="2.6" y2="-3.7" width="0.2032" layer="21" curve="-31.605028"/>
<wire x1="-3.302" y1="-3.048" x2="-2.6" y2="-3.6" width="0.2032" layer="21" curve="12.917633"/>
<wire x1="-2.6" y1="-6" x2="2.6" y2="-6" width="0.2032" layer="21"/>
<wire x1="2.6" y1="-6" x2="2.6" y2="-3.7" width="0.2032" layer="21"/>
<wire x1="-2.6" y1="-6" x2="-2.6" y2="-3.6" width="0.2032" layer="21"/>
<circle x="0" y="0" radius="4.5" width="0.127" layer="51"/>
<smd name="-" x="-4.15" y="0" dx="3.5" dy="2" layer="1"/>
<smd name="+" x="4.15" y="0" dx="3.5" dy="2" layer="1"/>
<rectangle x1="-5.2" y1="-0.75" x2="-2.9" y2="0.75" layer="51"/>
<rectangle x1="2.9" y1="-0.75" x2="5.2" y2="0.75" layer="51" rot="R180"/>
<hole x="-3.9" y="-2.25" drill="0.8"/>
<hole x="2.25" y="3.9" drill="0.8"/>
</package>
<package name="BUZZER-12MM-KIT">
<circle x="0" y="0" radius="5.9" width="0.2032" layer="21"/>
<circle x="0" y="0" radius="1.27" width="0.2032" layer="51"/>
<pad name="-" x="-3.25" y="0" drill="0.9" diameter="1.8796" stop="no"/>
<pad name="+" x="3.25" y="0" drill="0.9" diameter="1.8796" stop="no"/>
<text x="-2.54" y="2.54" size="0.6096" layer="25" ratio="10">&gt;NAME</text>
<text x="-3.175" y="-3.048" size="0.6096" layer="27" ratio="10">&gt;VALUE</text>
<text x="2.667" y="1.143" size="1.778" layer="51">+</text>
<polygon width="0.127" layer="30">
<vertex x="3.2537" y="-0.9525" curve="-90"/>
<vertex x="2.2988" y="-0.0228" curve="-90.011749"/>
<vertex x="3.2512" y="0.9526" curve="-90"/>
<vertex x="4.2012" y="-0.0254" curve="-90.024193"/>
</polygon>
<polygon width="0.127" layer="29">
<vertex x="3.2512" y="-0.4445" curve="-90.012891"/>
<vertex x="2.8067" y="-0.0203" curve="-90"/>
<vertex x="3.2512" y="0.447" curve="-90"/>
<vertex x="3.6931" y="-0.0101" curve="-90.012967"/>
</polygon>
<polygon width="0.127" layer="30">
<vertex x="-3.2487" y="-0.9525" curve="-90"/>
<vertex x="-4.2036" y="-0.0228" curve="-90.011749"/>
<vertex x="-3.2512" y="0.9526" curve="-90"/>
<vertex x="-2.3012" y="-0.0254" curve="-90.024193"/>
</polygon>
<polygon width="0.127" layer="29">
<vertex x="-3.2512" y="-0.4445" curve="-90.012891"/>
<vertex x="-3.6957" y="-0.0203" curve="-90"/>
<vertex x="-3.2512" y="0.447" curve="-90"/>
<vertex x="-2.8093" y="-0.0101" curve="-90.012967"/>
</polygon>
</package>
</packages>
<symbols>
<symbol name="SWITCH-MOMENTARY-2">
<wire x1="1.905" y1="0" x2="2.54" y2="0" width="0.254" layer="94"/>
<wire x1="-2.54" y1="0" x2="1.905" y2="1.27" width="0.254" layer="94"/>
<circle x="-2.54" y="0" radius="0.127" width="0.4064" layer="94"/>
<circle x="2.54" y="0" radius="0.127" width="0.4064" layer="94"/>
<text x="0" y="2.54" size="1.27" layer="95" font="vector" align="bottom-center">&gt;NAME</text>
<text x="0" y="-1.905" size="1.27" layer="96" font="vector" align="top-center">&gt;VALUE</text>
<pin name="1" x="-5.08" y="0" visible="off" length="short" direction="pas" swaplevel="2"/>
<pin name="2" x="5.08" y="0" visible="off" length="short" direction="pas" swaplevel="1" rot="R180"/>
</symbol>
<symbol name="BUZZER">
<wire x1="-1.27" y1="1.905" x2="0" y2="1.905" width="0.1524" layer="94"/>
<wire x1="0" y1="1.905" x2="0" y2="2.54" width="0.1524" layer="94"/>
<wire x1="0" y1="1.905" x2="0" y2="1.27" width="0.1524" layer="94"/>
<wire x1="0.635" y1="3.175" x2="0.635" y2="0.635" width="0.1524" layer="94"/>
<wire x1="0.635" y1="0.635" x2="1.905" y2="0.635" width="0.1524" layer="94"/>
<wire x1="1.905" y1="0.635" x2="1.905" y2="3.175" width="0.1524" layer="94"/>
<wire x1="1.905" y1="3.175" x2="0.635" y2="3.175" width="0.1524" layer="94"/>
<wire x1="2.54" y1="2.54" x2="2.54" y2="1.905" width="0.1524" layer="94"/>
<wire x1="2.54" y1="1.905" x2="3.81" y2="1.905" width="0.1524" layer="94"/>
<wire x1="2.54" y1="1.905" x2="2.54" y2="1.27" width="0.1524" layer="94"/>
<wire x1="5.08" y1="0" x2="5.08" y2="3.81" width="0.254" layer="94"/>
<wire x1="5.08" y1="3.81" x2="5.715" y2="3.81" width="0.254" layer="94"/>
<wire x1="5.715" y1="3.81" x2="5.715" y2="4.445" width="0.254" layer="94"/>
<wire x1="5.715" y1="4.445" x2="-3.175" y2="4.445" width="0.254" layer="94"/>
<wire x1="-3.175" y1="4.445" x2="-3.175" y2="3.81" width="0.254" layer="94"/>
<wire x1="-3.175" y1="3.81" x2="-2.54" y2="3.81" width="0.254" layer="94"/>
<wire x1="-2.54" y1="3.81" x2="-2.54" y2="0" width="0.254" layer="94"/>
<wire x1="-2.54" y1="3.81" x2="5.08" y2="3.81" width="0.254" layer="94"/>
<wire x1="-2.54" y1="0" x2="5.08" y2="0" width="0.254" layer="94"/>
<text x="-2.54" y="5.08" size="1.778" layer="95">&gt;NAME</text>
<text x="6.35" y="0" size="1.778" layer="96">&gt;VALUE</text>
<pin name="2" x="2.54" y="-2.54" visible="off" length="short" direction="pas" rot="R90"/>
<pin name="1" x="0" y="-2.54" visible="off" length="short" direction="pas" rot="R90"/>
</symbol>
</symbols>
<devicesets>
<deviceset name="SWITCH-MOMENTARY-2" prefix="S">
<description>Various NO switches- pushbuttons, reed, etc</description>
<gates>
<gate name="G$1" symbol="SWITCH-MOMENTARY-2" x="0" y="0"/>
</gates>
<devices>
<device name="PTH" package="TACTILE-PTH">
<connects>
<connect gate="G$1" pin="1" pad="1"/>
<connect gate="G$1" pin="2" pad="3"/>
</connects>
<technologies>
<technology name="">
<attribute name="VALUE" value="" constant="no"/>
</technology>
</technologies>
</device>
<device name="SMD" package="TACTILE_SWITCH_SMD">
<connects>
<connect gate="G$1" pin="1" pad="1"/>
<connect gate="G$1" pin="2" pad="3"/>
</connects>
<technologies>
<technology name=""/>
</technologies>
</device>
<device name="SMD-2" package="TACTILE_SWITCH_SMD-2">
<connects>
<connect gate="G$1" pin="1" pad="2"/>
<connect gate="G$1" pin="2" pad="1"/>
</connects>
<technologies>
<technology name=""/>
</technologies>
</device>
<device name="12MM" package="TACTILE-PTH-12MM">
<connects>
<connect gate="G$1" pin="1" pad="1"/>
<connect gate="G$1" pin="2" pad="3"/>
</connects>
<technologies>
<technology name=""/>
</technologies>
</device>
<device name="-SMD-1101NE" package="TACTILE-SWITCH-1101NE">
<connects>
<connect gate="G$1" pin="1" pad="P$1"/>
<connect gate="G$1" pin="2" pad="P$2"/>
</connects>
<technologies>
<technology name=""/>
</technologies>
</device>
<device name="PTH_REED" package="REED_SWITCH_PTH">
<connects>
<connect gate="G$1" pin="1" pad="P$1"/>
<connect gate="G$1" pin="2" pad="P$2"/>
</connects>
<technologies>
<technology name=""/>
</technologies>
</device>
<device name="" package="TACTILE_SWITCH_TALL">
<connects>
<connect gate="G$1" pin="1" pad="A1 A2"/>
<connect gate="G$1" pin="2" pad="B1 B2"/>
</connects>
<technologies>
<technology name=""/>
</technologies>
</device>
<device name="PTH_REED2" package="REED_SWITCH_PLASTIC">
<connects>
<connect gate="G$1" pin="1" pad="P$1"/>
<connect gate="G$1" pin="2" pad="P$2"/>
</connects>
<technologies>
<technology name=""/>
</technologies>
</device>
<device name="SIDE_EZ" package="TACTILE-PTH-SIDEEZ">
<connects>
<connect gate="G$1" pin="1" pad="1"/>
<connect gate="G$1" pin="2" pad="2"/>
</connects>
<technologies>
<technology name=""/>
</technologies>
</device>
<device name="SMD-3" package="TACTILE_SWITCH_SMD-3">
<connects>
<connect gate="G$1" pin="1" pad="1"/>
<connect gate="G$1" pin="2" pad="4"/>
</connects>
<technologies>
<technology name=""/>
</technologies>
</device>
</devices>
</deviceset>
<deviceset name="BUZZER" prefix="SG">
<description>&lt;b&gt;Buzzer 12mm&lt;/b&gt;
Spark Fun Electronics SKU : Comp-Buzzer</description>
<gates>
<gate name="G$1" symbol="BUZZER" x="0" y="0"/>
</gates>
<devices>
<device name="PTH" package="BUZZER-12MM">
<connects>
<connect gate="G$1" pin="1" pad="+"/>
<connect gate="G$1" pin="2" pad="-"/>
</connects>
<technologies>
<technology name=""/>
</technologies>
</device>
<device name="SMD" package="BUZZER-CMT1603">
<connects>
<connect gate="G$1" pin="1" pad="P$1"/>
<connect gate="G$1" pin="2" pad="P$2"/>
</connects>
<technologies>
<technology name=""/>
</technologies>
</device>
<device name="SMD2" package="BUZZER-CCV">
<connects>
<connect gate="G$1" pin="1" pad="+"/>
<connect gate="G$1" pin="2" pad="-"/>
</connects>
<technologies>
<technology name=""/>
</technologies>
</device>
<device name="SMD3" package="BUZZER-CMT1102">
<connects>
<connect gate="G$1" pin="1" pad="1"/>
<connect gate="G$1" pin="2" pad="2"/>
</connects>
<technologies>
<technology name=""/>
</technologies>
</device>
<device name="NS" package="BUZZER-12MM-NS">
<connects>
<connect gate="G$1" pin="1" pad="+"/>
<connect gate="G$1" pin="2" pad="-"/>
</connects>
<technologies>
<technology name=""/>
</technologies>
</device>
<device name="PTH-NS-KIT" package="BUZZER-12MM-NS-KIT">
<connects>
<connect gate="G$1" pin="1" pad="+"/>
<connect gate="G$1" pin="2" pad="-"/>
</connects>
<technologies>
<technology name="">
<attribute name="PROD_ID" value="COMP-08253" constant="no"/>
</technology>
</technologies>
</device>
<device name="SMD2-KIT" package="BUZZER-CCV-KIT">
<connects>
<connect gate="G$1" pin="1" pad="+"/>
<connect gate="G$1" pin="2" pad="-"/>
</connects>
<technologies>
<technology name=""/>
</technologies>
</device>
<device name="PTH-KIT" package="BUZZER-12MM-KIT">
<connects>
<connect gate="G$1" pin="1" pad="+"/>
<connect gate="G$1" pin="2" pad="-"/>
</connects>
<technologies>
<technology name="">
<attribute name="PROD_ID" value="COMP-08253" constant="no"/>
</technology>
</technologies>
</device>
</devices>
</deviceset>
</devicesets>
</library>
<library name="SparkFun-LED">
<description>&lt;h3&gt;SparkFun Electronics' preferred foot prints&lt;/h3&gt;
In this library you'll find discrete LEDs for illumination or indication, but no displays.&lt;br&gt;&lt;br&gt;
We've spent an enormous amount of time creating and checking these footprints and parts, but it is the end user's responsibility to ensure correctness and suitablity for a given componet or application. If you enjoy using this library, please buy one of our products at www.sparkfun.com.
&lt;br&gt;&lt;br&gt;
&lt;b&gt;Licensing:&lt;/b&gt; Creative Commons ShareAlike 4.0 International - https://creativecommons.org/licenses/by-sa/4.0/ 
&lt;br&gt;&lt;br&gt;
You are welcome to use this library for commercial purposes. For attribution, we ask that when you begin to sell your device using our footprint, you email us with a link to the product being sold. We want bragging rights that we helped (in a very small part) to create your 8th world wonder. We would like the opportunity to feature your device on our homepage.</description>
<packages>
<package name="LED5MM">
<description>&lt;B&gt;LED&lt;/B&gt;&lt;p&gt;
5 mm, round</description>
<wire x1="2.54" y1="-1.905" x2="2.54" y2="1.905" width="0.2032" layer="21"/>
<wire x1="2.54" y1="-1.905" x2="2.54" y2="1.905" width="0.254" layer="21" curve="-286.260205" cap="flat"/>
<wire x1="0" y1="-1.143" x2="1.143" y2="0" width="0.1524" layer="51" curve="90" cap="flat"/>
<wire x1="0" y1="-1.651" x2="1.651" y2="0" width="0.1524" layer="51" curve="90" cap="flat"/>
<wire x1="0" y1="-2.159" x2="2.159" y2="0" width="0.1524" layer="51" curve="90" cap="flat"/>
<circle x="0" y="0" radius="2.54" width="0.1524" layer="21"/>
<pad name="A" x="-1.27" y="0" drill="0.8128" diameter="1.8796"/>
<pad name="K" x="1.27" y="0" drill="0.8128" diameter="1.8796"/>
<text x="3.175" y="0" size="1.27" layer="25" font="vector" ratio="10" align="center-left">&gt;NAME</text>
<text x="3.175" y="-1.27" size="1.27" layer="27" font="vector" ratio="10" align="top-left">&gt;VALUE</text>
</package>
<package name="LED3MM">
<description>&lt;B&gt;LED&lt;/B&gt;&lt;p&gt;
3 mm, round</description>
<wire x1="1.5748" y1="-1.27" x2="1.5748" y2="1.27" width="0.254" layer="51"/>
<wire x1="0" y1="2.032" x2="1.561" y2="1.3009" width="0.254" layer="21" curve="-50.193108" cap="flat"/>
<wire x1="-1.7929" y1="0.9562" x2="0" y2="2.032" width="0.254" layer="21" curve="-61.926949" cap="flat"/>
<wire x1="0" y1="-2.032" x2="1.5512" y2="-1.3126" width="0.254" layer="21" curve="49.763022" cap="flat"/>
<wire x1="-1.7643" y1="-1.0082" x2="0" y2="-2.032" width="0.254" layer="21" curve="60.255215" cap="flat"/>
<wire x1="-2.032" y1="0" x2="-1.7891" y2="0.9634" width="0.254" layer="51" curve="-28.301701" cap="flat"/>
<wire x1="-2.032" y1="0" x2="-1.7306" y2="-1.065" width="0.254" layer="51" curve="31.60822" cap="flat"/>
<wire x1="1.5748" y1="1.2954" x2="1.5748" y2="0.7874" width="0.254" layer="21"/>
<wire x1="1.5748" y1="-1.2954" x2="1.5748" y2="-0.8382" width="0.254" layer="21"/>
<pad name="A" x="-1.27" y="0" drill="0.8128" diameter="1.8796"/>
<pad name="K" x="1.27" y="0" drill="0.8128" diameter="1.8796"/>
<text x="1.905" y="0.381" size="1.27" layer="25" ratio="10">&gt;NAME</text>
<text x="1.905" y="-1.651" size="1.27" layer="27" ratio="10">&gt;VALUE</text>
</package>
<package name="LED10MM">
<wire x1="-5" y1="-2" x2="-5" y2="2" width="0.2032" layer="21" curve="316.862624"/>
<wire x1="-5" y1="2" x2="-5" y2="-2" width="0.2032" layer="21"/>
<pad name="A" x="2.54" y="0" drill="2.4" diameter="3.7"/>
<pad name="C" x="-2.54" y="0" drill="2.4" diameter="3.7" shape="square"/>
<text x="2.159" y="2.54" size="1.016" layer="51" ratio="15">L</text>
<text x="-2.921" y="2.54" size="1.016" layer="51" ratio="15">S</text>
</package>
<package name="FKIT-LED-1206">
<wire x1="1.55" y1="-0.75" x2="-1.55" y2="-0.75" width="0.1016" layer="51"/>
<wire x1="-1.55" y1="-0.75" x2="-1.55" y2="0.75" width="0.1016" layer="51"/>
<wire x1="-1.55" y1="0.75" x2="1.55" y2="0.75" width="0.1016" layer="51"/>
<wire x1="1.55" y1="0.75" x2="1.55" y2="-0.75" width="0.1016" layer="51"/>
<wire x1="-0.55" y1="-0.5" x2="0.55" y2="-0.5" width="0.1016" layer="21" curve="95.452622"/>
<wire x1="-0.55" y1="0.5" x2="-0.55" y2="-0.5" width="0.1016" layer="51" curve="84.547378"/>
<wire x1="0.55" y1="0.5" x2="-0.55" y2="0.5" width="0.1016" layer="21" curve="95.452622"/>
<wire x1="0.55" y1="-0.5" x2="0.55" y2="0.5" width="0.1016" layer="51" curve="84.547378"/>
<smd name="A" x="-1.422" y="0" dx="1.6" dy="1.803" layer="1"/>
<smd name="C" x="1.422" y="0" dx="1.6" dy="1.803" layer="1"/>
<text x="-1.27" y="1.27" size="1.27" layer="25">&gt;NAME</text>
<text x="-1.27" y="-2.54" size="1.27" layer="27">&gt;VALUE</text>
<rectangle x1="-0.1" y1="-0.1" x2="0.1" y2="0.1" layer="21"/>
<rectangle x1="0.45" y1="-0.7" x2="0.8" y2="-0.45" layer="51"/>
<rectangle x1="0.8" y1="-0.7" x2="0.9" y2="0.5" layer="51"/>
<rectangle x1="0.8" y1="0.55" x2="0.9" y2="0.7" layer="51"/>
<rectangle x1="-0.9" y1="-0.7" x2="-0.8" y2="0.5" layer="51"/>
<rectangle x1="-0.9" y1="0.55" x2="-0.8" y2="0.7" layer="51"/>
<rectangle x1="0.45" y1="-0.7" x2="0.6" y2="-0.45" layer="21"/>
</package>
<package name="LED3MM-NS">
<description>&lt;h3&gt;LED 3MM - No Silk&lt;/h3&gt;
3 mm, round</description>
<wire x1="1.5748" y1="-1.27" x2="1.5748" y2="1.27" width="0.254" layer="51"/>
<wire x1="0" y1="2.032" x2="1.561" y2="1.3009" width="0.254" layer="51" curve="-50.193108" cap="flat"/>
<wire x1="-1.7929" y1="0.9562" x2="0" y2="2.032" width="0.254" layer="51" curve="-61.926949" cap="flat"/>
<wire x1="0" y1="-2.032" x2="1.5512" y2="-1.3126" width="0.254" layer="51" curve="49.763022" cap="flat"/>
<wire x1="-1.7643" y1="-1.0082" x2="0" y2="-2.032" width="0.254" layer="51" curve="60.255215" cap="flat"/>
<wire x1="-2.032" y1="0" x2="-1.7891" y2="0.9634" width="0.254" layer="51" curve="-28.301701" cap="flat"/>
<wire x1="-2.032" y1="0" x2="-1.7306" y2="-1.065" width="0.254" layer="51" curve="31.60822" cap="flat"/>
<wire x1="1.5748" y1="1.2954" x2="1.5748" y2="0.7874" width="0.254" layer="51"/>
<wire x1="1.5748" y1="-1.2954" x2="1.5748" y2="-0.8382" width="0.254" layer="51"/>
<pad name="A" x="-1.27" y="0" drill="0.8128"/>
<pad name="K" x="1.27" y="0" drill="0.8128"/>
<text x="1.905" y="0.381" size="1.27" layer="25" ratio="10">&gt;NAME</text>
<text x="1.905" y="-1.651" size="1.27" layer="27" ratio="10">&gt;VALUE</text>
</package>
<package name="LED5MM-KIT">
<description>&lt;h3&gt;LED5MM-KIT&lt;/h3&gt;
5MM Through-hole LED&lt;br&gt;
&lt;br&gt;
&lt;b&gt;Warning:&lt;/b&gt; This is the KIT version of this package. This package has a smaller diameter top stop mask, which doesn't cover the diameter of the pad. This means only the bottom side of the pads' copper will be exposed. You'll only be able to solder to the bottom side.</description>
<wire x1="2.54" y1="-1.905" x2="2.54" y2="1.905" width="0.2032" layer="21"/>
<wire x1="2.54" y1="-1.905" x2="2.54" y2="1.905" width="0.254" layer="21" curve="-286.260205" cap="flat"/>
<wire x1="-1.143" y1="0" x2="0" y2="1.143" width="0.1524" layer="51" curve="-90" cap="flat"/>
<wire x1="0" y1="-1.143" x2="1.143" y2="0" width="0.1524" layer="51" curve="90" cap="flat"/>
<wire x1="-1.651" y1="0" x2="0" y2="1.651" width="0.1524" layer="51" curve="-90" cap="flat"/>
<wire x1="0" y1="-1.651" x2="1.651" y2="0" width="0.1524" layer="51" curve="90" cap="flat"/>
<wire x1="-2.159" y1="0" x2="0" y2="2.159" width="0.1524" layer="51" curve="-90" cap="flat"/>
<wire x1="0" y1="-2.159" x2="2.159" y2="0" width="0.1524" layer="51" curve="90" cap="flat"/>
<circle x="0" y="0" radius="2.54" width="0.1524" layer="21"/>
<pad name="A" x="-1.27" y="0" drill="0.8128" diameter="1.8796" stop="no"/>
<pad name="K" x="1.27" y="0" drill="0.8128" diameter="1.8796" stop="no"/>
<text x="3.175" y="0.5334" size="1.27" layer="25" ratio="10">&gt;NAME</text>
<text x="3.2004" y="-1.8034" size="1.27" layer="27" ratio="10">&gt;VALUE</text>
<polygon width="0.127" layer="30">
<vertex x="-1.2675" y="-0.9525" curve="-90"/>
<vertex x="-2.2224" y="-0.0228" curve="-90.011749"/>
<vertex x="-1.27" y="0.9526" curve="-90"/>
<vertex x="-0.32" y="-0.0254" curve="-90.024193"/>
</polygon>
<polygon width="0.127" layer="29">
<vertex x="-1.27" y="-0.4445" curve="-90.012891"/>
<vertex x="-1.7145" y="-0.0203" curve="-90"/>
<vertex x="-1.27" y="0.447" curve="-90"/>
<vertex x="-0.8281" y="-0.0101" curve="-90.012967"/>
</polygon>
<polygon width="0.127" layer="30">
<vertex x="1.2725" y="-0.9525" curve="-90"/>
<vertex x="0.3176" y="-0.0228" curve="-90.011749"/>
<vertex x="1.27" y="0.9526" curve="-90"/>
<vertex x="2.22" y="-0.0254" curve="-90.024193"/>
</polygon>
<polygon width="0.127" layer="29">
<vertex x="1.27" y="-0.4445" curve="-90.012891"/>
<vertex x="0.8255" y="-0.0203" curve="-90"/>
<vertex x="1.27" y="0.447" curve="-90"/>
<vertex x="1.7119" y="-0.0101" curve="-90.012967"/>
</polygon>
</package>
<package name="LED-1206">
<wire x1="-1" y1="1" x2="-2.4" y2="1" width="0.2032" layer="21"/>
<wire x1="-2.4" y1="1" x2="-2.4" y2="-1" width="0.2032" layer="21"/>
<wire x1="-2.4" y1="-1" x2="-1" y2="-1" width="0.2032" layer="21"/>
<wire x1="1" y1="1" x2="2.4" y2="1" width="0.2032" layer="21"/>
<wire x1="2.4" y1="1" x2="2.4" y2="-1" width="0.2032" layer="21"/>
<wire x1="2.4" y1="-1" x2="1" y2="-1" width="0.2032" layer="21"/>
<wire x1="0.3" y1="0.7" x2="0.3" y2="0" width="0.2032" layer="21"/>
<wire x1="0.3" y1="0" x2="0.3" y2="-0.7" width="0.2032" layer="21"/>
<wire x1="0.3" y1="0" x2="-0.3" y2="0.6" width="0.2032" layer="21"/>
<wire x1="-0.3" y1="0.6" x2="-0.3" y2="-0.6" width="0.2032" layer="21"/>
<wire x1="-0.3" y1="-0.6" x2="0.3" y2="0" width="0.2032" layer="21"/>
<smd name="A" x="-1.5" y="0" dx="1.2" dy="1.4" layer="1"/>
<smd name="C" x="1.5" y="0" dx="1.2" dy="1.4" layer="1"/>
<text x="0" y="1.5875" size="1.27" layer="25" font="vector" ratio="10" align="bottom-center">&gt;NAME</text>
<text x="0" y="-1.5875" size="1.27" layer="27" font="vector" ratio="10" align="top-center">&gt;VALUE</text>
<rectangle x1="-2.032" y1="-0.508" x2="-1.016" y2="0.508" layer="48"/>
<rectangle x1="1.016" y1="-0.508" x2="2.032" y2="0.508" layer="48"/>
</package>
<package name="LED-0603">
<wire x1="0.46" y1="0.17" x2="0" y2="0.17" width="0.2032" layer="21"/>
<wire x1="-0.46" y1="0.17" x2="0" y2="0.17" width="0.2032" layer="21"/>
<wire x1="0" y1="0.17" x2="0.2338" y2="-0.14" width="0.2032" layer="21"/>
<wire x1="-0.0254" y1="0.1546" x2="-0.2184" y2="-0.14" width="0.2032" layer="21"/>
<smd name="C" x="0" y="0.75" dx="0.8" dy="0.8" layer="1"/>
<smd name="A" x="0" y="-0.75" dx="0.8" dy="0.8" layer="1"/>
<text x="-0.6985" y="-0.889" size="0.4064" layer="25" rot="R90">&gt;NAME</text>
<text x="1.0795" y="-1.016" size="0.4064" layer="27" rot="R90">&gt;VALUE</text>
</package>
<package name="LED-1206-BOTTOM">
<wire x1="-2" y1="0.4" x2="-2" y2="-0.4" width="0.127" layer="49"/>
<wire x1="-2.4" y1="0" x2="-1.6" y2="0" width="0.127" layer="49"/>
<wire x1="1.6" y1="0" x2="2.4" y2="0" width="0.127" layer="49"/>
<wire x1="-1.27" y1="0" x2="-0.381" y2="0" width="0.127" layer="49"/>
<wire x1="-0.381" y1="0" x2="-0.381" y2="0.635" width="0.127" layer="49"/>
<wire x1="-0.381" y1="0.635" x2="0.254" y2="0" width="0.127" layer="49"/>
<wire x1="0.254" y1="0" x2="-0.381" y2="-0.635" width="0.127" layer="49"/>
<wire x1="-0.381" y1="-0.635" x2="-0.381" y2="0" width="0.127" layer="49"/>
<wire x1="0.254" y1="0" x2="0.254" y2="0.635" width="0.127" layer="49"/>
<wire x1="0.254" y1="0" x2="0.254" y2="-0.635" width="0.127" layer="49"/>
<wire x1="0.254" y1="0" x2="1.27" y2="0" width="0.127" layer="49"/>
<rectangle x1="-0.75" y1="-0.75" x2="0.75" y2="0.75" layer="51"/>
<smd name="A" x="-1.8" y="0" dx="1.5" dy="1.6" layer="1"/>
<smd name="C" x="1.8" y="0" dx="1.5" dy="1.6" layer="1"/>
<hole x="0" y="0" drill="2.3"/>
<polygon width="0" layer="51">
<vertex x="1.1" y="-0.5"/>
<vertex x="1.1" y="0.5"/>
<vertex x="1.6" y="0.5"/>
<vertex x="1.6" y="0.25" curve="90"/>
<vertex x="1.4" y="0.05"/>
<vertex x="1.4" y="-0.05" curve="90"/>
<vertex x="1.6" y="-0.25"/>
<vertex x="1.6" y="-0.5"/>
</polygon>
<polygon width="0" layer="51">
<vertex x="-1.1" y="0.5"/>
<vertex x="-1.1" y="-0.5"/>
<vertex x="-1.6" y="-0.5"/>
<vertex x="-1.6" y="-0.25" curve="90"/>
<vertex x="-1.4" y="-0.05"/>
<vertex x="-1.4" y="0.05" curve="90"/>
<vertex x="-1.6" y="0.25"/>
<vertex x="-1.6" y="0.5"/>
</polygon>
</package>
</packages>
<symbols>
<symbol name="LED">
<wire x1="1.27" y1="0" x2="0" y2="-2.54" width="0.254" layer="94"/>
<wire x1="0" y1="-2.54" x2="-1.27" y2="0" width="0.254" layer="94"/>
<wire x1="1.27" y1="-2.54" x2="0" y2="-2.54" width="0.254" layer="94"/>
<wire x1="0" y1="-2.54" x2="-1.27" y2="-2.54" width="0.254" layer="94"/>
<wire x1="1.27" y1="0" x2="0" y2="0" width="0.254" layer="94"/>
<wire x1="0" y1="0" x2="-1.27" y2="0" width="0.254" layer="94"/>
<wire x1="0" y1="0" x2="0" y2="-2.54" width="0.1524" layer="94"/>
<wire x1="-2.032" y1="-0.762" x2="-3.429" y2="-2.159" width="0.1524" layer="94"/>
<wire x1="-1.905" y1="-1.905" x2="-3.302" y2="-3.302" width="0.1524" layer="94"/>
<text x="2.54" y="-1.27" size="1.27" layer="95" font="vector" rot="R90" align="top-center">&gt;NAME</text>
<text x="4.445" y="-1.27" size="1.27" layer="96" font="vector" rot="R90" align="top-center">&gt;VALUE</text>
<pin name="C" x="0" y="-5.08" visible="off" length="short" direction="pas" rot="R90"/>
<pin name="A" x="0" y="2.54" visible="off" length="short" direction="pas" rot="R270"/>
<polygon width="0.1524" layer="94">
<vertex x="-3.429" y="-2.159"/>
<vertex x="-3.048" y="-1.27"/>
<vertex x="-2.54" y="-1.778"/>
</polygon>
<polygon width="0.1524" layer="94">
<vertex x="-3.302" y="-3.302"/>
<vertex x="-2.921" y="-2.413"/>
<vertex x="-2.413" y="-2.921"/>
</polygon>
</symbol>
</symbols>
<devicesets>
<deviceset name="LED" prefix="LED" uservalue="yes">
<description>&lt;b&gt;LEDs&lt;/b&gt;
Standard schematic elements and footprints for 5mm, 3mm, 1206, and 0603 sized LEDs. 5mm - Spark Fun Electronics SKU : COM-00529 (and others)</description>
<gates>
<gate name="G$1" symbol="LED" x="0" y="0"/>
</gates>
<devices>
<device name="5MM" package="LED5MM">
<connects>
<connect gate="G$1" pin="A" pad="A"/>
<connect gate="G$1" pin="C" pad="K"/>
</connects>
<technologies>
<technology name=""/>
</technologies>
</device>
<device name="3MM" package="LED3MM">
<connects>
<connect gate="G$1" pin="A" pad="A"/>
<connect gate="G$1" pin="C" pad="K"/>
</connects>
<technologies>
<technology name=""/>
</technologies>
</device>
<device name="1206" package="LED-1206">
<connects>
<connect gate="G$1" pin="A" pad="A"/>
<connect gate="G$1" pin="C" pad="C"/>
</connects>
<technologies>
<technology name=""/>
</technologies>
</device>
<device name="0603" package="LED-0603">
<connects>
<connect gate="G$1" pin="A" pad="A"/>
<connect gate="G$1" pin="C" pad="C"/>
</connects>
<technologies>
<technology name=""/>
</technologies>
</device>
<device name="10MM" package="LED10MM">
<connects>
<connect gate="G$1" pin="A" pad="A"/>
<connect gate="G$1" pin="C" pad="C"/>
</connects>
<technologies>
<technology name=""/>
</technologies>
</device>
<device name="-FKIT-1206" package="FKIT-LED-1206">
<connects>
<connect gate="G$1" pin="A" pad="A"/>
<connect gate="G$1" pin="C" pad="C"/>
</connects>
<technologies>
<technology name=""/>
</technologies>
</device>
<device name="-3MM-NO_SILK" package="LED3MM-NS">
<connects>
<connect gate="G$1" pin="A" pad="A"/>
<connect gate="G$1" pin="C" pad="K"/>
</connects>
<technologies>
<technology name=""/>
</technologies>
</device>
<device name="5MM-KIT" package="LED5MM-KIT">
<connects>
<connect gate="G$1" pin="A" pad="A"/>
<connect gate="G$1" pin="C" pad="K"/>
</connects>
<technologies>
<technology name=""/>
</technologies>
</device>
<device name="1206-BOTTOM" package="LED-1206-BOTTOM">
<connects>
<connect gate="G$1" pin="A" pad="A"/>
<connect gate="G$1" pin="C" pad="C"/>
</connects>
<technologies>
<technology name=""/>
</technologies>
</device>
</devices>
</deviceset>
</devicesets>
</library>
<library name="WV Arcade">
<description>WV Arcade</description>
<packages>
<package name="1/4R">
<wire x1="1.93" y1="-1.2" x2="1.93" y2="1.2" width="0.1778" layer="21"/>
<wire x1="1.93" y1="1.2" x2="8.23" y2="1.2" width="0.1778" layer="21"/>
<wire x1="8.23" y1="1.2" x2="8.23" y2="-1.2" width="0.1778" layer="21"/>
<wire x1="8.23" y1="-1.2" x2="1.93" y2="-1.2" width="0.1778" layer="21"/>
<pad name="P$1" x="0" y="0" drill="0.9" diameter="1.8796"/>
<pad name="P$2" x="10.16" y="0" drill="0.9" diameter="1.8796"/>
<text x="5.08" y="1.905" size="1.27" layer="27" font="vector" ratio="10" align="bottom-center">&gt;Value</text>
<text x="5.08" y="0" size="1.27" layer="25" font="vector" ratio="10" align="center">&gt;Name</text>
</package>
<package name="1/2R">
<wire x1="1.93" y1="-1.2" x2="1.93" y2="1.2" width="0.1778" layer="21"/>
<wire x1="1.93" y1="1.2" x2="11.67" y2="1.2" width="0.1778" layer="21"/>
<wire x1="11.67" y1="1.2" x2="11.67" y2="-1.2" width="0.1778" layer="21"/>
<wire x1="11.67" y1="-1.2" x2="1.93" y2="-1.2" width="0.1778" layer="21"/>
<pad name="P$1" x="0" y="0" drill="0.9" diameter="1.8796"/>
<pad name="P$2" x="13.6" y="0" drill="0.9" diameter="1.8796"/>
<text x="6.8" y="1.905" size="1.778" layer="27" font="vector" ratio="10" align="bottom-center">&gt;Value</text>
<text x="6.8" y="0" size="1.778" layer="25" font="vector" ratio="10" align="center">&gt;Name</text>
</package>
<package name="W-RESISTOR">
<pad name="P$1" x="0" y="0" drill="1.1"/>
<pad name="P$2" x="31.75" y="0" drill="1.1"/>
<wire x1="4.699" y1="-4.826" x2="27.051" y2="-4.826" width="0.1778" layer="21"/>
<wire x1="27.051" y1="-4.826" x2="27.051" y2="4.826" width="0.1778" layer="21"/>
<wire x1="27.051" y1="4.826" x2="4.699" y2="4.826" width="0.1778" layer="21"/>
<wire x1="4.699" y1="4.826" x2="4.699" y2="-4.826" width="0.1778" layer="21"/>
<text x="15.24" y="0.635" size="1.778" layer="25" font="vector" ratio="10" align="bottom-center">&gt;Name</text>
<text x="15.24" y="-0.635" size="1.778" layer="27" font="vector" ratio="10" align="top-center">&gt;Value</text>
</package>
<package name="1R">
<wire x1="-5.75" y1="-2.25" x2="-5.75" y2="2.25" width="0.2032" layer="21"/>
<wire x1="-5.75" y1="2.25" x2="5.75" y2="2.25" width="0.2032" layer="21"/>
<wire x1="5.75" y1="2.25" x2="5.75" y2="-2.25" width="0.2032" layer="21"/>
<wire x1="5.75" y1="-2.25" x2="-5.75" y2="-2.25" width="0.2032" layer="21"/>
<pad name="P$1" x="-7.62" y="0" drill="1.2" diameter="1.8796"/>
<pad name="P$2" x="7.62" y="0" drill="1.2" diameter="1.8796"/>
<text x="0" y="3.175" size="1.778" layer="27" font="vector" ratio="10" align="bottom-center">&gt;Value</text>
<text x="0" y="0" size="1.778" layer="25" font="vector" ratio="10" align="center">&gt;Name</text>
</package>
<package name="0805">
<wire x1="-0.3" y1="0.6" x2="0.3" y2="0.6" width="0.1524" layer="21"/>
<wire x1="-0.3" y1="-0.6" x2="0.3" y2="-0.6" width="0.1524" layer="21"/>
<smd name="1" x="-0.9" y="0" dx="0.8" dy="1.2" layer="1"/>
<smd name="2" x="0.9" y="0" dx="0.8" dy="1.2" layer="1"/>
<text x="0" y="0.9525" size="0.8128" layer="25" ratio="10" align="bottom-center">&gt;NAME</text>
<text x="0" y="-0.9525" size="0.8128" layer="27" ratio="10" align="top-center">&gt;VALUE</text>
<rectangle x1="-1.143" y1="-0.59055" x2="-0.635" y2="0.55245" layer="51"/>
<rectangle x1="0.635" y1="-0.59055" x2="1.143" y2="0.55245" layer="51"/>
</package>
<package name="1206">
<wire x1="-0.33" y1="0.787" x2="0.33" y2="0.787" width="0.1016" layer="51"/>
<wire x1="-0.33" y1="-0.787" x2="0.33" y2="-0.787" width="0.1016" layer="51"/>
<smd name="1" x="-1.4" y="0" dx="1.6" dy="1.8" layer="1"/>
<smd name="2" x="1.4" y="0" dx="1.6" dy="1.8" layer="1"/>
<text x="0" y="0" size="0.508" layer="25" ratio="10" rot="R90" align="center">&gt;NAME</text>
<text x="0" y="-1.27" size="0.508" layer="27" ratio="10" align="top-center">&gt;VALUE</text>
</package>
</packages>
<symbols>
<symbol name="5V">
<wire x1="0.762" y1="1.27" x2="0" y2="2.54" width="0.254" layer="94"/>
<wire x1="0" y1="2.54" x2="-0.762" y2="1.27" width="0.254" layer="94"/>
<text x="0" y="3.175" size="1.27" layer="96" font="vector" ratio="10" align="bottom-center">&gt;VALUE</text>
<pin name="VCC" x="0" y="0" visible="off" length="short" direction="sup" rot="R90"/>
</symbol>
<symbol name="GND">
<wire x1="-1.905" y1="-2.54" x2="1.905" y2="-2.54" width="0.254" layer="94"/>
<text x="0" y="-3.175" size="1.27" layer="96" font="vector" ratio="10" align="top-center">&gt;VALUE</text>
<pin name="GND" x="0" y="0" visible="off" length="short" direction="sup" rot="R270"/>
</symbol>
<symbol name="RESISTOR">
<wire x1="-2.54" y1="0" x2="-2.159" y2="1.016" width="0.1524" layer="94"/>
<wire x1="-2.159" y1="1.016" x2="-1.524" y2="-1.016" width="0.1524" layer="94"/>
<wire x1="-1.524" y1="-1.016" x2="-0.889" y2="1.016" width="0.1524" layer="94"/>
<wire x1="-0.889" y1="1.016" x2="-0.254" y2="-1.016" width="0.1524" layer="94"/>
<wire x1="-0.254" y1="-1.016" x2="0.381" y2="1.016" width="0.1524" layer="94"/>
<wire x1="0.381" y1="1.016" x2="1.016" y2="-1.016" width="0.1524" layer="94"/>
<wire x1="1.016" y1="-1.016" x2="1.651" y2="1.016" width="0.1524" layer="94"/>
<wire x1="1.651" y1="1.016" x2="2.286" y2="-1.016" width="0.1524" layer="94"/>
<wire x1="2.286" y1="-1.016" x2="2.54" y2="0" width="0.1524" layer="94"/>
<text x="0" y="1.905" size="1.27" layer="95" font="vector" align="bottom-center">&gt;NAME</text>
<text x="0" y="-1.905" size="1.27" layer="96" font="vector" align="top-center">&gt;VALUE</text>
<pin name="2" x="5.08" y="0" visible="off" length="short" direction="pas" swaplevel="1" rot="R180"/>
<pin name="1" x="-5.08" y="0" visible="off" length="short" direction="pas" swaplevel="1"/>
<text x="0" y="-3.81" size="1.27" layer="96" font="vector" align="top-center">&gt;ATTRIBUTE</text>
<text x="0" y="-5.715" size="1.27" layer="96" font="vector" align="top-center">&gt;WATT</text>
</symbol>
</symbols>
<devicesets>
<deviceset name="5V">
<description>&lt;h1&gt;+5V Symbol&lt;/h1&gt;</description>
<gates>
<gate name="G$1" symbol="5V" x="0" y="0"/>
</gates>
<devices>
<device name="">
<technologies>
<technology name=""/>
</technologies>
</device>
</devices>
</deviceset>
<deviceset name="GND">
<description>&lt;h1&gt;GND Symbol&lt;/h1&gt;</description>
<gates>
<gate name="G$1" symbol="GND" x="0" y="0"/>
</gates>
<devices>
<device name="">
<technologies>
<technology name=""/>
</technologies>
</device>
</devices>
</deviceset>
<deviceset name="RESISTOR" prefix="R" uservalue="yes">
<description>&lt;h1&gt;Generic Resistor&lt;/h1&gt;</description>
<gates>
<gate name="G$1" symbol="RESISTOR" x="0" y="0" swaplevel="1"/>
</gates>
<devices>
<device name="1/4W" package="1/4R">
<connects>
<connect gate="G$1" pin="1" pad="P$1"/>
<connect gate="G$1" pin="2" pad="P$2"/>
</connects>
<technologies>
<technology name="">
<attribute name="ATTRIBUTE" value="1/4W" constant="no"/>
<attribute name="DIGIKEY" value="" constant="no"/>
<attribute name="WATT" value="" constant="no"/>
</technology>
</technologies>
</device>
<device name="1/2W" package="1/2R">
<connects>
<connect gate="G$1" pin="1" pad="P$1"/>
<connect gate="G$1" pin="2" pad="P$2"/>
</connects>
<technologies>
<technology name="">
<attribute name="ATTRIBUTE" value="1/2W" constant="no"/>
<attribute name="DIGIKEY" value="" constant="no"/>
<attribute name="WATT" value="" constant="no"/>
</technology>
</technologies>
</device>
<device name="5W" package="W-RESISTOR">
<connects>
<connect gate="G$1" pin="1" pad="P$1"/>
<connect gate="G$1" pin="2" pad="P$2"/>
</connects>
<technologies>
<technology name="">
<attribute name="ATTRIBUTE" value="5W" constant="no"/>
<attribute name="DIGIKEY" value="" constant="no"/>
<attribute name="WATT" value="" constant="no"/>
</technology>
</technologies>
</device>
<device name="" package="1R">
<connects>
<connect gate="G$1" pin="1" pad="P$1"/>
<connect gate="G$1" pin="2" pad="P$2"/>
</connects>
<technologies>
<technology name="">
<attribute name="ATTRIBUTE" value="1W" constant="no"/>
<attribute name="DIGIKEY" value="" constant="no"/>
<attribute name="WATT" value="" constant="no"/>
</technology>
</technologies>
</device>
<device name="0805" package="0805">
<connects>
<connect gate="G$1" pin="1" pad="1"/>
<connect gate="G$1" pin="2" pad="2"/>
</connects>
<technologies>
<technology name="">
<attribute name="ATTRIBUTE" value="0805" constant="no"/>
<attribute name="DIGIKEY" value="" constant="no"/>
<attribute name="WATT" value="" constant="no"/>
</technology>
</technologies>
</device>
<device name="1206" package="1206">
<connects>
<connect gate="G$1" pin="1" pad="1"/>
<connect gate="G$1" pin="2" pad="2"/>
</connects>
<technologies>
<technology name="">
<attribute name="ATTRIBUTE" value="1206" constant="no"/>
<attribute name="DIGIKEY" value="" constant="no"/>
<attribute name="WATT" value="" constant="no"/>
</technology>
</technologies>
</device>
</devices>
</deviceset>
</devicesets>
</library>
<library name="ATtiny">
<description>&lt;h3&gt;ATMEL ATtiny 25 / 45 /48&lt;/h3&gt;

&lt;author&gt;
&lt;p&gt;&lt;u&gt;Author:&lt;/u&gt;&lt;br /&gt;
Eric Conner&lt;/author&gt;</description>
<packages>
<package name="PDIP08_300MIL">
<description>&lt;b&gt;DIL08 300mil&lt;/b&gt;</description>
<wire x1="5.08" y1="2.921" x2="-5.08" y2="2.921" width="0.1524" layer="21"/>
<wire x1="-5.08" y1="-2.921" x2="5.08" y2="-2.921" width="0.1524" layer="21"/>
<wire x1="5.08" y1="2.921" x2="5.08" y2="-2.921" width="0.1524" layer="21"/>
<wire x1="-5.08" y1="-2.921" x2="-5.08" y2="2.921" width="0.1524" layer="21"/>
<pad name="1" x="-3.81" y="-3.81" drill="0.8128" diameter="1.6764" shape="square" rot="R90"/>
<pad name="2" x="-1.27" y="-3.81" drill="0.8128" diameter="1.6764" rot="R90"/>
<pad name="7" x="-1.27" y="3.81" drill="0.8128" diameter="1.6764" rot="R90"/>
<pad name="8" x="-3.81" y="3.81" drill="0.8128" diameter="1.6764" rot="R90"/>
<pad name="3" x="1.27" y="-3.81" drill="0.8128" diameter="1.6764" rot="R90"/>
<pad name="4" x="3.81" y="-3.81" drill="0.8128" diameter="1.6764" rot="R90"/>
<pad name="6" x="1.27" y="3.81" drill="0.8128" diameter="1.6764" rot="R90"/>
<pad name="5" x="3.81" y="3.81" drill="0.8128" diameter="1.6764" rot="R90"/>
<text x="-2.54" y="0.635" size="1.4224" layer="25" ratio="9">&gt;NAME</text>
<text x="-2.54" y="-1.905" size="1.4224" layer="27" ratio="9">&gt;VALUE</text>
<circle x="-3.81" y="-1.905" radius="0.3175" width="0.127" layer="21"/>
</package>
<package name="SOIC8_EIAJ_208MIL">
<description>&lt;B&gt;Small Outline Medium Plastic Gull Wing&lt;/B&gt;&lt;p&gt;
208-mil body</description>
<wire x1="2.6" y1="2.63" x2="2.6" y2="-1.93" width="0.2032" layer="21"/>
<wire x1="2.6" y1="-1.93" x2="2.6" y2="-2.63" width="0.2032" layer="21"/>
<wire x1="2.6" y1="-2.63" x2="-2.6" y2="-2.63" width="0.2032" layer="21"/>
<wire x1="-2.6" y1="-2.63" x2="-2.6" y2="-1.93" width="0.2032" layer="21"/>
<wire x1="-2.6" y1="-1.93" x2="-2.6" y2="2.63" width="0.2032" layer="21"/>
<wire x1="-2.6" y1="2.63" x2="2.6" y2="2.63" width="0.2032" layer="21"/>
<wire x1="2.6" y1="-1.93" x2="-2.6" y2="-1.93" width="0.2032" layer="21"/>
<wire x1="-3.1163" y1="-4.9213" x2="3.0163" y2="-4.9213" width="0.1016" layer="39"/>
<wire x1="3.0163" y1="-4.9213" x2="3.0163" y2="4.9213" width="0.1016" layer="39"/>
<wire x1="3.0163" y1="4.9213" x2="-3.1163" y2="4.9213" width="0.1016" layer="39"/>
<wire x1="-3.1163" y1="4.9213" x2="-3.1163" y2="-4.9213" width="0.1016" layer="39"/>
<smd name="2" x="-0.635" y="-3.33" dx="0.6" dy="2.286" layer="1"/>
<smd name="7" x="-0.635" y="3.33" dx="0.6" dy="2.286" layer="1"/>
<smd name="1" x="-1.905" y="-3.33" dx="0.6" dy="2.286" layer="1"/>
<smd name="3" x="0.635" y="-3.33" dx="0.6" dy="2.286" layer="1"/>
<smd name="4" x="1.905" y="-3.33" dx="0.6" dy="2.286" layer="1"/>
<smd name="8" x="-1.905" y="3.33" dx="0.6" dy="2.286" layer="1"/>
<smd name="6" x="0.635" y="3.33" dx="0.6" dy="2.286" layer="1"/>
<smd name="5" x="1.905" y="3.33" dx="0.6" dy="2.286" layer="1"/>
<text x="-2.867" y="-2.54" size="1.4224" layer="25" ratio="9" rot="R90">&gt;NAME</text>
<text x="4.2958" y="-2.54" size="1.4224" layer="27" ratio="9" rot="R90">&gt;VALUE</text>
</package>
</packages>
<symbols>
<symbol name="ATTINY25_45_85">
<wire x1="-10.16" y1="7.62" x2="12.7" y2="7.62" width="0.254" layer="94"/>
<wire x1="12.7" y1="7.62" x2="12.7" y2="-10.16" width="0.254" layer="94"/>
<wire x1="12.7" y1="-10.16" x2="-10.16" y2="-10.16" width="0.254" layer="94"/>
<wire x1="-10.16" y1="-10.16" x2="-10.16" y2="7.62" width="0.254" layer="94"/>
<text x="-10.16" y="8.382" size="1.778" layer="95">&gt;NAME</text>
<text x="-10.16" y="-12.7" size="1.778" layer="96">&gt;VALUE</text>
<pin name="MOSI/PB0" x="17.78" y="-7.62" length="middle" rot="R180"/>
<pin name="MISO/PB1" x="17.78" y="-5.08" length="middle" rot="R180"/>
<pin name="SCK/PB2" x="17.78" y="-2.54" length="middle" rot="R180"/>
<pin name="PB3" x="17.78" y="0" length="middle" rot="R180"/>
<pin name="PB4" x="17.78" y="2.54" length="middle" rot="R180"/>
<pin name="RESET/PB5" x="17.78" y="5.08" length="middle" rot="R180"/>
<pin name="VCC" x="-15.24" y="5.08" length="middle" direction="pwr"/>
<pin name="GND" x="-15.24" y="-7.62" length="middle" direction="pwr"/>
</symbol>
</symbols>
<devicesets>
<deviceset name="ATTINY45*" prefix="U">
<description>&lt;h3&gt;ATMEL ATtiny 45&lt;/h3&gt;

&lt;p&gt;&lt;b&gt;&lt;u&gt;Technologies&lt;/u&gt;&lt;/b&gt;&lt;br /&gt;
Note: for complete ordering code  (temp. range, finish, tape&amp;reel etc.) see www.atmel.com&lt;br /&gt;
&amp;bull; Supply Voltage:
  &lt;b&gt;V&lt;/b&gt; = (1.8&amp;hellip;5.5)V | &lt;b&gt;[blank]&lt;/b&gt; = (2.7&amp;hellip;5.5)V&lt;br /&gt;
&amp;bull; Speed:
  &lt;b&gt;10&lt;/b&gt; = 10 MHz | &lt;b&gt;20&lt;/b&gt; = 20 MHz
&lt;/pre&gt;&lt;/p&gt;
&lt;hr /&gt;

&lt;author&gt;
&lt;p&gt;&lt;u&gt;Author:&lt;/u&gt;&lt;br /&gt;
Eric Conner&lt;/p&gt;&lt;/author&gt;</description>
<gates>
<gate name="G$1" symbol="ATTINY25_45_85" x="0" y="0"/>
</gates>
<devices>
<device name="P" package="PDIP08_300MIL">
<connects>
<connect gate="G$1" pin="GND" pad="4"/>
<connect gate="G$1" pin="MISO/PB1" pad="6"/>
<connect gate="G$1" pin="MOSI/PB0" pad="5"/>
<connect gate="G$1" pin="PB3" pad="2"/>
<connect gate="G$1" pin="PB4" pad="3"/>
<connect gate="G$1" pin="RESET/PB5" pad="1"/>
<connect gate="G$1" pin="SCK/PB2" pad="7"/>
<connect gate="G$1" pin="VCC" pad="8"/>
</connects>
<technologies>
<technology name="-"/>
<technology name="-20"/>
<technology name="V-10"/>
</technologies>
</device>
<device name="SU" package="SOIC8_EIAJ_208MIL">
<connects>
<connect gate="G$1" pin="GND" pad="4"/>
<connect gate="G$1" pin="MISO/PB1" pad="6"/>
<connect gate="G$1" pin="MOSI/PB0" pad="5"/>
<connect gate="G$1" pin="PB3" pad="2"/>
<connect gate="G$1" pin="PB4" pad="3"/>
<connect gate="G$1" pin="RESET/PB5" pad="1"/>
<connect gate="G$1" pin="SCK/PB2" pad="7"/>
<connect gate="G$1" pin="VCC" pad="8"/>
</connects>
<technologies>
<technology name="-"/>
<technology name="-20"/>
<technology name="V-10"/>
</technologies>
</device>
</devices>
</deviceset>
</devicesets>
</library>
<library name="ECA_Electromechanical">
<packages>
<package name="BAT-2032">
<pad name="-" x="-7.46" y="0" drill="1.17"/>
<pad name="+" x="12.53" y="0" drill="1.5" shape="square" first="yes"/>
<wire x1="13.225" y1="-3.875" x2="13.225" y2="3.875" width="0.1524" layer="21"/>
<wire x1="13.225" y1="3.875" x2="10.48165" y2="3.875" width="0.1524" layer="21"/>
<wire x1="13.225" y1="-3.875" x2="10.48165" y2="-3.875" width="0.1524" layer="21"/>
<wire x1="10.48165" y1="3.875" x2="10.48165" y2="-3.875" width="0.1524" layer="21" curve="319.421928"/>
<text x="0" y="0.635" size="1.27" layer="25" font="vector" ratio="10" align="bottom-center">&gt;NAME</text>
<text x="0" y="-0.635" size="1.27" layer="27" font="vector" ratio="10" align="top-center">&gt;VALUE</text>
<text x="10.16" y="0" size="1.778" layer="25" font="vector" ratio="10" align="center">+</text>
<text x="-9.525" y="0" size="1.778" layer="25" font="vector" ratio="10" align="center">-</text>
</package>
</packages>
<symbols>
<symbol name="BATTERY">
<wire x1="-3.81" y1="1.27" x2="0" y2="1.27" width="0.4064" layer="94"/>
<wire x1="0" y1="1.27" x2="3.81" y2="1.27" width="0.4064" layer="94"/>
<wire x1="-1.27" y1="0" x2="1.27" y2="0" width="0.4064" layer="94"/>
<wire x1="-3.81" y1="-1.27" x2="3.81" y2="-1.27" width="0.4064" layer="94"/>
<wire x1="-1.27" y1="-2.54" x2="1.27" y2="-2.54" width="0.4064" layer="94"/>
<wire x1="0" y1="1.27" x2="0" y2="2.54" width="0.1524" layer="94"/>
<text x="5.08" y="0.635" size="1.778" layer="95" font="vector">&gt;NAME</text>
<text x="5.08" y="-0.635" size="1.778" layer="96" font="vector" align="top-left">&gt;VALUE</text>
<pin name="-" x="0" y="-5.08" visible="off" length="short" direction="pwr" rot="R90"/>
<pin name="+" x="0" y="5.08" visible="off" length="short" direction="pwr" rot="R270"/>
</symbol>
</symbols>
<devicesets>
<deviceset name="BATTERY" prefix="BAT" uservalue="yes">
<gates>
<gate name="G$1" symbol="BATTERY" x="0" y="-5.08"/>
</gates>
<devices>
<device name="2032" package="BAT-2032">
<connects>
<connect gate="G$1" pin="+" pad="+"/>
<connect gate="G$1" pin="-" pad="-"/>
</connects>
<technologies>
<technology name="">
<attribute name="VALUE" value="2032"/>
</technology>
</technologies>
</device>
</devices>
</deviceset>
</devicesets>
</library>
</libraries>
<attributes>
</attributes>
<variantdefs>
</variantdefs>
<classes>
<class number="0" name="default" width="0" drill="0">
<clearance class="0" value="0.6096"/>
</class>
</classes>
<parts>
<part name="BAT1" library="ECA_Electromechanical" deviceset="BATTERY" device="2032" value="2032">
<attribute name="DIGIKEY" value="BS-7-ND"/>
</part>
<part name="S1" library="SparkFun-Electromechanical" deviceset="SWITCH-MOMENTARY-2" device="PTH" value="">
<attribute name="DIGIKEY" value="450-1644-ND"/>
</part>
<part name="S5" library="SparkFun-Electromechanical" deviceset="SWITCH-MOMENTARY-2" device="PTH" value="">
<attribute name="DIGIKEY" value="450-1644-ND"/>
</part>
<part name="D1" library="SparkFun-LED" deviceset="LED" device="5MM" value="RED">
<attribute name="DIGIKEY" value="160-1678-ND"/>
</part>
<part name="U$3" library="WV Arcade" deviceset="5V" device=""/>
<part name="U$4" library="WV Arcade" deviceset="GND" device=""/>
<part name="U$5" library="WV Arcade" deviceset="5V" device=""/>
<part name="U$6" library="WV Arcade" deviceset="GND" device=""/>
<part name="R1" library="WV Arcade" deviceset="RESISTOR" device="1/4W" value="470Ω">
<attribute name="DIGIKEY" value="CF14JT470RCT-ND"/>
</part>
<part name="U$7" library="WV Arcade" deviceset="5V" device=""/>
<part name="S2" library="SparkFun-Electromechanical" deviceset="SWITCH-MOMENTARY-2" device="PTH" value="">
<attribute name="DIGIKEY" value="450-1644-ND"/>
</part>
<part name="D2" library="SparkFun-LED" deviceset="LED" device="5MM" value="GRN">
<attribute name="DIGIKEY" value="160-1677-ND"/>
</part>
<part name="U$9" library="WV Arcade" deviceset="5V" device=""/>
<part name="U$10" library="WV Arcade" deviceset="GND" device=""/>
<part name="R2" library="WV Arcade" deviceset="RESISTOR" device="1/4W" value="470Ω">
<attribute name="DIGIKEY" value="CF14JT470RCT-ND"/>
</part>
<part name="S3" library="SparkFun-Electromechanical" deviceset="SWITCH-MOMENTARY-2" device="PTH" value="">
<attribute name="DIGIKEY" value="450-1644-ND"/>
</part>
<part name="D3" library="SparkFun-LED" deviceset="LED" device="5MM" value="BLU">
<attribute name="DIGIKEY" value="160-1610-ND"/>
</part>
<part name="U$11" library="WV Arcade" deviceset="5V" device=""/>
<part name="U$12" library="WV Arcade" deviceset="GND" device=""/>
<part name="R3" library="WV Arcade" deviceset="RESISTOR" device="1/4W" value="470Ω">
<attribute name="DIGIKEY" value="CF14JT470RCT-ND"/>
</part>
<part name="S4" library="SparkFun-Electromechanical" deviceset="SWITCH-MOMENTARY-2" device="PTH" value="">
<attribute name="DIGIKEY" value="450-1644-ND"/>
</part>
<part name="D4" library="SparkFun-LED" deviceset="LED" device="5MM" value="YEL">
<attribute name="DIGIKEY" value="160-1686-ND"/>
</part>
<part name="U$13" library="WV Arcade" deviceset="5V" device=""/>
<part name="U$14" library="WV Arcade" deviceset="GND" device=""/>
<part name="R4" library="WV Arcade" deviceset="RESISTOR" device="1/4W" value="470Ω">
<attribute name="DIGIKEY" value="CF14JT470RCT-ND"/>
</part>
<part name="U$15" library="WV Arcade" deviceset="GND" device=""/>
<part name="SG1" library="SparkFun-Electromechanical" deviceset="BUZZER" device="PTH" value="PIEZO">
<attribute name="DIGIKEY" value="102-3752-ND"/>
</part>
<part name="U1" library="ATtiny" deviceset="ATTINY45*" device="P" technology="-20" value="ATTINY45-20P">
<attribute name="DIGIKEY" value="ATTINY45-20PU-ND"/>
</part>
<part name="U$8" library="WV Arcade" deviceset="5V" device=""/>
<part name="U$16" library="WV Arcade" deviceset="GND" device=""/>
</parts>
<sheets>
<sheet>
<plain>
</plain>
<instances>
<instance part="BAT1" gate="G$1" x="71.12" y="96.52" rot="R270">
<attribute name="DIGIKEY" x="71.12" y="96.52" size="1.778" layer="96" rot="R270" display="off"/>
</instance>
<instance part="S1" gate="G$1" x="160.02" y="111.76" rot="MR0">
<attribute name="DIGIKEY" x="160.02" y="111.76" size="1.778" layer="96" rot="MR0" display="off"/>
</instance>
<instance part="S5" gate="G$1" x="149.86" y="33.02" rot="MR0">
<attribute name="DIGIKEY" x="149.86" y="33.02" size="1.778" layer="96" rot="MR0" display="off"/>
</instance>
<instance part="D1" gate="G$1" x="132.08" y="111.76" rot="MR270">
<attribute name="DIGIKEY" x="132.08" y="111.76" size="1.778" layer="96" rot="MR270" display="off"/>
</instance>
<instance part="U$3" gate="G$1" x="78.74" y="96.52"/>
<instance part="U$4" gate="G$1" x="63.5" y="96.52"/>
<instance part="U$5" gate="G$1" x="127" y="114.3"/>
<instance part="U$6" gate="G$1" x="167.64" y="109.22"/>
<instance part="R1" gate="G$1" x="144.78" y="111.76"/>
<instance part="U$7" gate="G$1" x="93.98" y="91.44" rot="R180"/>
<instance part="S2" gate="G$1" x="160.02" y="91.44">
<attribute name="DIGIKEY" x="160.02" y="91.44" size="1.778" layer="96" display="off"/>
</instance>
<instance part="D2" gate="G$1" x="132.08" y="91.44" rot="MR270">
<attribute name="DIGIKEY" x="132.08" y="91.44" size="1.778" layer="96" rot="MR270" display="off"/>
</instance>
<instance part="U$9" gate="G$1" x="127" y="93.98"/>
<instance part="U$10" gate="G$1" x="167.64" y="88.9"/>
<instance part="R2" gate="G$1" x="144.78" y="91.44"/>
<instance part="S3" gate="G$1" x="160.02" y="71.12" rot="MR0">
<attribute name="DIGIKEY" x="160.02" y="71.12" size="1.778" layer="96" rot="MR0" display="off"/>
</instance>
<instance part="D3" gate="G$1" x="132.08" y="71.12" rot="MR270">
<attribute name="DIGIKEY" x="132.08" y="71.12" size="1.778" layer="96" rot="MR270" display="off"/>
</instance>
<instance part="U$11" gate="G$1" x="127" y="73.66"/>
<instance part="U$12" gate="G$1" x="167.64" y="68.58"/>
<instance part="R3" gate="G$1" x="144.78" y="71.12"/>
<instance part="S4" gate="G$1" x="160.02" y="50.8">
<attribute name="DIGIKEY" x="160.02" y="50.8" size="1.778" layer="96" display="off"/>
</instance>
<instance part="D4" gate="G$1" x="132.08" y="50.8" rot="MR270">
<attribute name="DIGIKEY" x="132.08" y="50.8" size="1.778" layer="96" rot="MR270" display="off"/>
</instance>
<instance part="U$13" gate="G$1" x="127" y="53.34"/>
<instance part="U$14" gate="G$1" x="167.64" y="48.26"/>
<instance part="R4" gate="G$1" x="144.78" y="50.8"/>
<instance part="U$15" gate="G$1" x="167.64" y="30.48"/>
<instance part="SG1" gate="G$1" x="93.98" y="101.6">
<attribute name="DIGIKEY" x="93.98" y="101.6" size="1.778" layer="96" display="off"/>
</instance>
<instance part="U1" gate="G$1" x="81.28" y="53.34">
<attribute name="DIGIKEY" x="81.28" y="53.34" size="1.778" layer="96" display="off"/>
</instance>
<instance part="U$8" gate="G$1" x="63.5" y="60.96"/>
<instance part="U$16" gate="G$1" x="63.5" y="43.18"/>
</instances>
<busses>
</busses>
<nets>
<net name="VCC" class="0">
<segment>
<pinref part="BAT1" gate="G$1" pin="+"/>
<pinref part="U$3" gate="G$1" pin="VCC"/>
<wire x1="78.74" y1="96.52" x2="76.2" y2="96.52" width="0.1524" layer="91"/>
</segment>
<segment>
<pinref part="D1" gate="G$1" pin="A"/>
<wire x1="129.54" y1="111.76" x2="127" y2="111.76" width="0.1524" layer="91"/>
<wire x1="127" y1="111.76" x2="127" y2="114.3" width="0.1524" layer="91"/>
<pinref part="U$5" gate="G$1" pin="VCC"/>
</segment>
<segment>
<pinref part="D2" gate="G$1" pin="A"/>
<wire x1="129.54" y1="91.44" x2="127" y2="91.44" width="0.1524" layer="91"/>
<wire x1="127" y1="91.44" x2="127" y2="93.98" width="0.1524" layer="91"/>
<pinref part="U$9" gate="G$1" pin="VCC"/>
</segment>
<segment>
<pinref part="D3" gate="G$1" pin="A"/>
<wire x1="129.54" y1="71.12" x2="127" y2="71.12" width="0.1524" layer="91"/>
<wire x1="127" y1="71.12" x2="127" y2="73.66" width="0.1524" layer="91"/>
<pinref part="U$11" gate="G$1" pin="VCC"/>
</segment>
<segment>
<pinref part="D4" gate="G$1" pin="A"/>
<wire x1="129.54" y1="50.8" x2="127" y2="50.8" width="0.1524" layer="91"/>
<wire x1="127" y1="50.8" x2="127" y2="53.34" width="0.1524" layer="91"/>
<pinref part="U$13" gate="G$1" pin="VCC"/>
</segment>
<segment>
<pinref part="U1" gate="G$1" pin="VCC"/>
<wire x1="66.04" y1="58.42" x2="63.5" y2="58.42" width="0.1524" layer="91"/>
<wire x1="63.5" y1="58.42" x2="63.5" y2="60.96" width="0.1524" layer="91"/>
<pinref part="U$8" gate="G$1" pin="VCC"/>
</segment>
<segment>
<pinref part="SG1" gate="G$1" pin="1"/>
<wire x1="93.98" y1="91.44" x2="93.98" y2="99.06" width="0.1524" layer="91"/>
<pinref part="U$7" gate="G$1" pin="VCC"/>
</segment>
</net>
<net name="GND" class="0">
<segment>
<pinref part="BAT1" gate="G$1" pin="-"/>
<pinref part="U$4" gate="G$1" pin="GND"/>
<wire x1="63.5" y1="96.52" x2="66.04" y2="96.52" width="0.1524" layer="91"/>
</segment>
<segment>
<wire x1="167.64" y1="111.76" x2="167.64" y2="109.22" width="0.1524" layer="91"/>
<pinref part="U$6" gate="G$1" pin="GND"/>
<pinref part="S1" gate="G$1" pin="1"/>
<wire x1="165.1" y1="111.76" x2="167.64" y2="111.76" width="0.1524" layer="91"/>
</segment>
<segment>
<wire x1="167.64" y1="91.44" x2="167.64" y2="88.9" width="0.1524" layer="91"/>
<pinref part="U$10" gate="G$1" pin="GND"/>
<pinref part="S2" gate="G$1" pin="2"/>
<wire x1="165.1" y1="91.44" x2="167.64" y2="91.44" width="0.1524" layer="91"/>
</segment>
<segment>
<wire x1="167.64" y1="71.12" x2="167.64" y2="68.58" width="0.1524" layer="91"/>
<pinref part="U$12" gate="G$1" pin="GND"/>
<pinref part="S3" gate="G$1" pin="1"/>
<wire x1="165.1" y1="71.12" x2="167.64" y2="71.12" width="0.1524" layer="91"/>
</segment>
<segment>
<wire x1="167.64" y1="50.8" x2="167.64" y2="48.26" width="0.1524" layer="91"/>
<pinref part="U$14" gate="G$1" pin="GND"/>
<pinref part="S4" gate="G$1" pin="2"/>
<wire x1="165.1" y1="50.8" x2="167.64" y2="50.8" width="0.1524" layer="91"/>
</segment>
<segment>
<wire x1="167.64" y1="33.02" x2="167.64" y2="30.48" width="0.1524" layer="91"/>
<pinref part="U$15" gate="G$1" pin="GND"/>
<pinref part="S5" gate="G$1" pin="1"/>
<wire x1="154.94" y1="33.02" x2="167.64" y2="33.02" width="0.1524" layer="91"/>
</segment>
<segment>
<pinref part="U1" gate="G$1" pin="GND"/>
<wire x1="66.04" y1="45.72" x2="63.5" y2="45.72" width="0.1524" layer="91"/>
<wire x1="63.5" y1="45.72" x2="63.5" y2="43.18" width="0.1524" layer="91"/>
<pinref part="U$16" gate="G$1" pin="GND"/>
</segment>
</net>
<net name="YEL" class="0">
<segment>
<wire x1="149.86" y1="50.8" x2="152.4" y2="50.8" width="0.1524" layer="91"/>
<wire x1="152.4" y1="50.8" x2="152.4" y2="55.88" width="0.1524" layer="91"/>
<label x="152.4" y="55.88" size="1.27" layer="95" rot="R90" xref="yes"/>
<pinref part="R4" gate="G$1" pin="2"/>
<pinref part="S4" gate="G$1" pin="1"/>
<wire x1="152.4" y1="50.8" x2="154.94" y2="50.8" width="0.1524" layer="91"/>
<junction x="152.4" y="50.8"/>
</segment>
<segment>
<pinref part="U1" gate="G$1" pin="PB4"/>
<wire x1="99.06" y1="55.88" x2="101.6" y2="55.88" width="0.1524" layer="91"/>
<label x="101.6" y="55.88" size="1.27" layer="95" xref="yes"/>
</segment>
</net>
<net name="BLU" class="0">
<segment>
<wire x1="149.86" y1="71.12" x2="152.4" y2="71.12" width="0.1524" layer="91"/>
<wire x1="152.4" y1="71.12" x2="152.4" y2="76.2" width="0.1524" layer="91"/>
<label x="152.4" y="76.2" size="1.27" layer="95" rot="R90" xref="yes"/>
<pinref part="R3" gate="G$1" pin="2"/>
<pinref part="S3" gate="G$1" pin="2"/>
<wire x1="154.94" y1="71.12" x2="152.4" y2="71.12" width="0.1524" layer="91"/>
<junction x="152.4" y="71.12"/>
</segment>
<segment>
<pinref part="U1" gate="G$1" pin="MOSI/PB0"/>
<wire x1="99.06" y1="45.72" x2="101.6" y2="45.72" width="0.1524" layer="91"/>
<label x="101.6" y="45.72" size="1.27" layer="95" xref="yes"/>
</segment>
</net>
<net name="GRN" class="0">
<segment>
<wire x1="149.86" y1="91.44" x2="152.4" y2="91.44" width="0.1524" layer="91"/>
<wire x1="152.4" y1="91.44" x2="152.4" y2="96.52" width="0.1524" layer="91"/>
<label x="152.4" y="96.52" size="1.27" layer="95" rot="R90" xref="yes"/>
<pinref part="R2" gate="G$1" pin="2"/>
<pinref part="S2" gate="G$1" pin="1"/>
<wire x1="152.4" y1="91.44" x2="154.94" y2="91.44" width="0.1524" layer="91"/>
<junction x="152.4" y="91.44"/>
</segment>
<segment>
<pinref part="U1" gate="G$1" pin="SCK/PB2"/>
<wire x1="99.06" y1="50.8" x2="101.6" y2="50.8" width="0.1524" layer="91"/>
<label x="101.6" y="50.8" size="1.27" layer="95" xref="yes"/>
</segment>
</net>
<net name="SND" class="0">
<segment>
<pinref part="SG1" gate="G$1" pin="2"/>
<wire x1="96.52" y1="99.06" x2="96.52" y2="96.52" width="0.1524" layer="91"/>
<wire x1="96.52" y1="96.52" x2="101.6" y2="96.52" width="0.1524" layer="91"/>
<label x="101.6" y="96.52" size="1.27" layer="95" xref="yes"/>
</segment>
<segment>
<pinref part="U1" gate="G$1" pin="MISO/PB1"/>
<wire x1="99.06" y1="48.26" x2="101.6" y2="48.26" width="0.1524" layer="91"/>
<label x="101.6" y="48.26" size="1.27" layer="95" xref="yes"/>
</segment>
</net>
<net name="RST" class="0">
<segment>
<label x="132.08" y="33.02" size="1.27" layer="95" rot="R180" xref="yes"/>
<pinref part="S5" gate="G$1" pin="2"/>
<wire x1="144.78" y1="33.02" x2="132.08" y2="33.02" width="0.1524" layer="91"/>
</segment>
<segment>
<pinref part="U1" gate="G$1" pin="RESET/PB5"/>
<wire x1="99.06" y1="58.42" x2="101.6" y2="58.42" width="0.1524" layer="91"/>
<label x="101.6" y="58.42" size="1.27" layer="95" xref="yes"/>
</segment>
</net>
<net name="RED" class="0">
<segment>
<wire x1="149.86" y1="111.76" x2="152.4" y2="111.76" width="0.1524" layer="91"/>
<wire x1="152.4" y1="111.76" x2="152.4" y2="116.84" width="0.1524" layer="91"/>
<label x="152.4" y="116.84" size="1.27" layer="95" rot="R90" xref="yes"/>
<pinref part="R1" gate="G$1" pin="2"/>
<pinref part="S1" gate="G$1" pin="2"/>
<wire x1="154.94" y1="111.76" x2="152.4" y2="111.76" width="0.1524" layer="91"/>
<junction x="152.4" y="111.76"/>
</segment>
<segment>
<pinref part="U1" gate="G$1" pin="PB3"/>
<wire x1="99.06" y1="53.34" x2="101.6" y2="53.34" width="0.1524" layer="91"/>
<label x="101.6" y="53.34" size="1.27" layer="95" xref="yes"/>
</segment>
</net>
<net name="N$1" class="0">
<segment>
<pinref part="R1" gate="G$1" pin="1"/>
<pinref part="D1" gate="G$1" pin="C"/>
<wire x1="137.16" y1="111.76" x2="139.7" y2="111.76" width="0.1524" layer="91"/>
</segment>
</net>
<net name="N$2" class="0">
<segment>
<pinref part="R2" gate="G$1" pin="1"/>
<pinref part="D2" gate="G$1" pin="C"/>
<wire x1="137.16" y1="91.44" x2="139.7" y2="91.44" width="0.1524" layer="91"/>
</segment>
</net>
<net name="N$3" class="0">
<segment>
<pinref part="R3" gate="G$1" pin="1"/>
<pinref part="D3" gate="G$1" pin="C"/>
<wire x1="137.16" y1="71.12" x2="139.7" y2="71.12" width="0.1524" layer="91"/>
</segment>
</net>
<net name="N$4" class="0">
<segment>
<pinref part="R4" gate="G$1" pin="1"/>
<pinref part="D4" gate="G$1" pin="C"/>
<wire x1="137.16" y1="50.8" x2="139.7" y2="50.8" width="0.1524" layer="91"/>
</segment>
</net>
</nets>
</sheet>
</sheets>
<errors>
<approved hash="104,1,66.04,96.52,BAT1,-,GND,,,"/>
<approved hash="104,1,76.2,96.52,BAT1,+,VCC,,,"/>
</errors>
</schematic>
</drawing>
</eagle>
